<?xml version="1.0" encoding="UTF-8"?>
<svg xmlns="http://www.w3.org/2000/svg" xmlns:xlink="http://www.w3.org/1999/xlink" width="196" height="102" viewBox="0 0 196 102">
<defs>
<g>
<g id="glyph-0-0">
</g>
<g id="glyph-0-1">
<path d="M 1.890625 1.796875 L 1.890625 -1.296875 C 1.890625 -1.679688 1.988281 -2.023438 2.1875 -2.328125 C 2.382812 -2.628906 2.679688 -2.78125 3.078125 -2.78125 L 4.40625 -2.78125 L 4.40625 -2.171875 L 3.078125 -2.171875 C 2.867188 -2.171875 2.710938 -2.097656 2.609375 -1.953125 C 2.503906 -1.804688 2.453125 -1.585938 2.453125 -1.296875 L 2.453125 1.796875 Z M 1.890625 1.796875 "/>
</g>
<g id="glyph-0-2">
<path d="M -0.078125 -2.171875 L -0.078125 -2.78125 L 4.40625 -2.78125 L 4.40625 -2.171875 Z M -0.078125 -2.171875 "/>
</g>
<g id="glyph-0-3">
<path d="M 1.890625 1.796875 L 1.890625 -1.296875 C 1.890625 -1.585938 1.832031 -1.804688 1.71875 -1.953125 C 1.613281 -2.097656 1.457031 -2.171875 1.25 -2.171875 L -0.078125 -2.171875 L -0.078125 -2.78125 L 1.25 -2.78125 C 1.644531 -2.78125 1.941406 -2.628906 2.140625 -2.328125 C 2.347656 -2.035156 2.453125 -1.691406 2.453125 -1.296875 L 2.453125 1.796875 Z M 1.890625 1.796875 "/>
</g>
<g id="glyph-0-4">
<path d="M 1.890625 1.796875 L 1.890625 -6.75 L 2.453125 -6.75 L 2.453125 1.796875 Z M 1.890625 1.796875 "/>
</g>
<g id="glyph-0-5">
</g>
<g id="glyph-0-6">
<path d="M 0.296875 -5.25 L 1.25 -5.25 L 2.15625 -2.578125 L 3.078125 -5.25 L 4.03125 -5.25 L 4.03125 0 L 3.375 0 L 3.375 -4.640625 L 2.4375 -1.875 L 1.890625 -1.875 L 0.953125 -4.640625 L 0.953125 0 L 0.296875 0 Z M 0.296875 -5.25 "/>
</g>
<g id="glyph-0-7">
<path d="M 3.015625 -1.265625 C 2.910156 -0.992188 2.773438 -0.632812 2.609375 -0.1875 C 2.378906 0.4375 2.222656 0.816406 2.140625 0.953125 C 2.035156 1.128906 1.898438 1.265625 1.734375 1.359375 C 1.566406 1.453125 1.378906 1.5 1.171875 1.5 L 0.640625 1.5 L 0.640625 0.953125 L 1.03125 0.953125 C 1.21875 0.953125 1.363281 0.894531 1.46875 0.78125 C 1.582031 0.675781 1.722656 0.394531 1.890625 -0.0625 L 0.359375 -3.9375 L 1.046875 -3.9375 L 2.21875 -0.859375 L 3.375 -3.9375 L 4.0625 -3.9375 Z M 3.015625 -1.265625 "/>
</g>
<g id="glyph-0-8">
<path d="M 3.234375 -1.96875 C 3.234375 -2.46875 3.148438 -2.84375 2.984375 -3.09375 C 2.828125 -3.351562 2.59375 -3.484375 2.28125 -3.484375 C 1.96875 -3.484375 1.726562 -3.351562 1.5625 -3.09375 C 1.40625 -2.84375 1.328125 -2.46875 1.328125 -1.96875 C 1.328125 -1.46875 1.40625 -1.085938 1.5625 -0.828125 C 1.726562 -0.578125 1.96875 -0.453125 2.28125 -0.453125 C 2.59375 -0.453125 2.828125 -0.578125 2.984375 -0.828125 C 3.148438 -1.085938 3.234375 -1.46875 3.234375 -1.96875 Z M 1.328125 -3.4375 C 1.429688 -3.625 1.570312 -3.769531 1.75 -3.875 C 1.9375 -3.976562 2.148438 -4.03125 2.390625 -4.03125 C 2.859375 -4.03125 3.226562 -3.847656 3.5 -3.484375 C 3.769531 -3.117188 3.90625 -2.617188 3.90625 -1.984375 C 3.90625 -1.328125 3.769531 -0.8125 3.5 -0.4375 C 3.226562 -0.0703125 2.851562 0.109375 2.375 0.109375 C 2.144531 0.109375 1.9375 0.0546875 1.75 -0.046875 C 1.570312 -0.148438 1.429688 -0.300781 1.328125 -0.5 L 1.328125 0 L 0.671875 0 L 0.671875 -5.46875 L 1.328125 -5.46875 Z M 1.328125 -3.4375 "/>
</g>
<g id="glyph-0-9">
<path d="M 2.25 -1.421875 C 2.25 -1.128906 2.300781 -0.910156 2.40625 -0.765625 C 2.507812 -0.617188 2.664062 -0.546875 2.875 -0.546875 L 3.640625 -0.546875 L 3.640625 0 L 2.8125 0 C 2.425781 0 2.125 -0.125 1.90625 -0.375 C 1.695312 -0.625 1.59375 -0.972656 1.59375 -1.421875 L 1.59375 -5 L 0.5625 -5 L 0.5625 -5.515625 L 2.25 -5.515625 Z M 2.25 -1.421875 "/>
</g>
<g id="glyph-0-10">
<path d="M 2.46875 -1.984375 L 2.25 -1.984375 C 1.875 -1.984375 1.585938 -1.914062 1.390625 -1.78125 C 1.203125 -1.644531 1.109375 -1.445312 1.109375 -1.1875 C 1.109375 -0.945312 1.179688 -0.757812 1.328125 -0.625 C 1.472656 -0.5 1.671875 -0.4375 1.921875 -0.4375 C 2.273438 -0.4375 2.554688 -0.5625 2.765625 -0.8125 C 2.972656 -1.0625 3.078125 -1.40625 3.078125 -1.84375 L 3.078125 -1.984375 Z M 3.71875 -2.25 L 3.71875 0 L 3.078125 0 L 3.078125 -0.578125 C 2.929688 -0.347656 2.753906 -0.175781 2.546875 -0.0625 C 2.335938 0.0507812 2.082031 0.109375 1.78125 0.109375 C 1.382812 0.109375 1.066406 -0.00390625 0.828125 -0.234375 C 0.585938 -0.460938 0.46875 -0.765625 0.46875 -1.140625 C 0.46875 -1.578125 0.613281 -1.910156 0.90625 -2.140625 C 1.195312 -2.367188 1.628906 -2.484375 2.203125 -2.484375 L 3.078125 -2.484375 L 3.078125 -2.59375 C 3.078125 -2.90625 2.992188 -3.128906 2.828125 -3.265625 C 2.671875 -3.410156 2.421875 -3.484375 2.078125 -3.484375 C 1.859375 -3.484375 1.632812 -3.453125 1.40625 -3.390625 C 1.1875 -3.328125 0.96875 -3.234375 0.75 -3.109375 L 0.75 -3.765625 C 0.988281 -3.847656 1.21875 -3.910156 1.4375 -3.953125 C 1.65625 -4.003906 1.867188 -4.03125 2.078125 -4.03125 C 2.410156 -4.03125 2.691406 -3.984375 2.921875 -3.890625 C 3.148438 -3.796875 3.335938 -3.648438 3.484375 -3.453125 C 3.566406 -3.335938 3.625 -3.191406 3.65625 -3.015625 C 3.695312 -2.847656 3.71875 -2.59375 3.71875 -2.25 Z M 3.71875 -2.25 "/>
</g>
<g id="glyph-0-11">
<path d="M 3.734375 -0.203125 C 3.554688 -0.0976562 3.375 -0.0195312 3.1875 0.03125 C 3.007812 0.0820312 2.820312 0.109375 2.625 0.109375 C 2.019531 0.109375 1.546875 -0.0703125 1.203125 -0.4375 C 0.859375 -0.8125 0.6875 -1.320312 0.6875 -1.96875 C 0.6875 -2.613281 0.859375 -3.117188 1.203125 -3.484375 C 1.546875 -3.847656 2.019531 -4.03125 2.625 -4.03125 C 2.820312 -4.03125 3.007812 -4.003906 3.1875 -3.953125 C 3.363281 -3.910156 3.546875 -3.835938 3.734375 -3.734375 L 3.734375 -3.046875 C 3.554688 -3.203125 3.378906 -3.3125 3.203125 -3.375 C 3.035156 -3.445312 2.84375 -3.484375 2.625 -3.484375 C 2.21875 -3.484375 1.90625 -3.351562 1.6875 -3.09375 C 1.476562 -2.832031 1.375 -2.457031 1.375 -1.96875 C 1.375 -1.476562 1.484375 -1.101562 1.703125 -0.84375 C 1.921875 -0.582031 2.226562 -0.453125 2.625 -0.453125 C 2.851562 -0.453125 3.054688 -0.484375 3.234375 -0.546875 C 3.410156 -0.617188 3.578125 -0.726562 3.734375 -0.875 Z M 3.734375 -0.203125 "/>
</g>
<g id="glyph-0-12">
<path d="M 0.828125 -5.46875 L 1.5 -5.46875 L 1.5 -2.296875 L 3.203125 -3.9375 L 3.984375 -3.9375 L 2.4375 -2.453125 L 4.234375 0 L 3.4375 0 L 1.984375 -2.03125 L 1.5 -1.578125 L 1.5 0 L 0.828125 0 Z M 0.828125 -5.46875 "/>
</g>
<g id="glyph-0-13">
<path d="M 3.703125 -2.4375 L 3.703125 0 L 3.046875 0 L 3.046875 -2.4375 C 3.046875 -2.789062 2.984375 -3.050781 2.859375 -3.21875 C 2.734375 -3.382812 2.539062 -3.46875 2.28125 -3.46875 C 1.976562 -3.46875 1.742188 -3.359375 1.578125 -3.140625 C 1.410156 -2.929688 1.328125 -2.625 1.328125 -2.21875 L 1.328125 0 L 0.6875 0 L 0.6875 -3.9375 L 1.328125 -3.9375 L 1.328125 -3.34375 C 1.441406 -3.570312 1.597656 -3.742188 1.796875 -3.859375 C 1.992188 -3.972656 2.226562 -4.03125 2.5 -4.03125 C 2.90625 -4.03125 3.207031 -3.898438 3.40625 -3.640625 C 3.601562 -3.378906 3.703125 -2.976562 3.703125 -2.4375 Z M 3.703125 -2.4375 "/>
</g>
<g id="glyph-0-14">
<path d="M 3.015625 -3.4375 L 3.015625 -5.46875 L 3.671875 -5.46875 L 3.671875 0 L 3.015625 0 L 3.015625 -0.5 C 2.910156 -0.300781 2.765625 -0.148438 2.578125 -0.046875 C 2.398438 0.0546875 2.195312 0.109375 1.96875 0.109375 C 1.488281 0.109375 1.113281 -0.0703125 0.84375 -0.4375 C 0.570312 -0.8125 0.4375 -1.328125 0.4375 -1.984375 C 0.4375 -2.617188 0.570312 -3.117188 0.84375 -3.484375 C 1.113281 -3.847656 1.488281 -4.03125 1.96875 -4.03125 C 2.207031 -4.03125 2.414062 -3.976562 2.59375 -3.875 C 2.769531 -3.78125 2.910156 -3.632812 3.015625 -3.4375 Z M 1.109375 -1.96875 C 1.109375 -1.46875 1.1875 -1.085938 1.34375 -0.828125 C 1.507812 -0.578125 1.75 -0.453125 2.0625 -0.453125 C 2.375 -0.453125 2.609375 -0.578125 2.765625 -0.828125 C 2.929688 -1.085938 3.015625 -1.46875 3.015625 -1.96875 C 3.015625 -2.46875 2.929688 -2.84375 2.765625 -3.09375 C 2.609375 -3.351562 2.375 -3.484375 2.0625 -3.484375 C 1.75 -3.484375 1.507812 -3.351562 1.34375 -3.09375 C 1.1875 -2.84375 1.109375 -2.46875 1.109375 -1.96875 Z M 1.109375 -1.96875 "/>
</g>
<g id="glyph-0-15">
<path d="M 0 -3.9375 L 0.640625 -3.9375 L 1.328125 -0.75 L 1.890625 -2.796875 L 2.4375 -2.796875 L 3.015625 -0.75 L 3.703125 -3.9375 L 4.34375 -3.9375 L 3.421875 0 L 2.796875 0 L 2.171875 -2.15625 L 1.546875 0 L 0.921875 0 Z M 0 -3.9375 "/>
</g>
<g id="glyph-0-16">
<path d="M 3.703125 -2.4375 L 3.703125 0 L 3.046875 0 L 3.046875 -2.4375 C 3.046875 -2.789062 2.984375 -3.050781 2.859375 -3.21875 C 2.734375 -3.382812 2.539062 -3.46875 2.28125 -3.46875 C 1.976562 -3.46875 1.742188 -3.359375 1.578125 -3.140625 C 1.410156 -2.929688 1.328125 -2.625 1.328125 -2.21875 L 1.328125 0 L 0.6875 0 L 0.6875 -5.46875 L 1.328125 -5.46875 L 1.328125 -3.34375 C 1.441406 -3.570312 1.597656 -3.742188 1.796875 -3.859375 C 1.992188 -3.972656 2.226562 -4.03125 2.5 -4.03125 C 2.90625 -4.03125 3.207031 -3.898438 3.40625 -3.640625 C 3.601562 -3.378906 3.703125 -2.976562 3.703125 -2.4375 Z M 3.703125 -2.4375 "/>
</g>
<g id="glyph-0-17">
<path d="M 0.90625 -3.9375 L 2.5625 -3.9375 L 2.5625 -0.5 L 3.84375 -0.5 L 3.84375 0 L 0.625 0 L 0.625 -0.5 L 1.90625 -0.5 L 1.90625 -3.4375 L 0.90625 -3.4375 Z M 1.90625 -5.46875 L 2.5625 -5.46875 L 2.5625 -4.65625 L 1.90625 -4.65625 Z M 1.90625 -5.46875 "/>
</g>
<g id="glyph-0-18">
<path d="M 2.15625 -5.0625 L 2.15625 -3.9375 L 3.625 -3.9375 L 3.625 -3.4375 L 2.15625 -3.4375 L 2.15625 -1.296875 C 2.15625 -1.003906 2.207031 -0.800781 2.3125 -0.6875 C 2.425781 -0.570312 2.625 -0.515625 2.90625 -0.515625 L 3.625 -0.515625 L 3.625 0 L 2.84375 0 C 2.351562 0 2.007812 -0.09375 1.8125 -0.28125 C 1.613281 -0.476562 1.515625 -0.816406 1.515625 -1.296875 L 1.515625 -3.4375 L 0.453125 -3.4375 L 0.453125 -3.9375 L 1.515625 -3.9375 L 1.515625 -5.0625 Z M 2.15625 -5.0625 "/>
</g>
<g id="glyph-0-19">
<path d="M 3.90625 -2.125 L 3.90625 -1.8125 L 1.109375 -1.8125 L 1.109375 -1.796875 C 1.109375 -1.367188 1.21875 -1.035156 1.4375 -0.796875 C 1.664062 -0.566406 1.984375 -0.453125 2.390625 -0.453125 C 2.597656 -0.453125 2.8125 -0.484375 3.03125 -0.546875 C 3.257812 -0.609375 3.503906 -0.707031 3.765625 -0.84375 L 3.765625 -0.203125 C 3.515625 -0.0976562 3.273438 -0.0195312 3.046875 0.03125 C 2.816406 0.0820312 2.597656 0.109375 2.390625 0.109375 C 1.773438 0.109375 1.296875 -0.0703125 0.953125 -0.4375 C 0.609375 -0.8125 0.4375 -1.320312 0.4375 -1.96875 C 0.4375 -2.59375 0.601562 -3.09375 0.9375 -3.46875 C 1.28125 -3.84375 1.734375 -4.03125 2.296875 -4.03125 C 2.796875 -4.03125 3.1875 -3.859375 3.46875 -3.515625 C 3.757812 -3.179688 3.90625 -2.71875 3.90625 -2.125 Z M 3.265625 -2.328125 C 3.253906 -2.703125 3.160156 -2.988281 2.984375 -3.1875 C 2.816406 -3.382812 2.578125 -3.484375 2.265625 -3.484375 C 1.953125 -3.484375 1.691406 -3.378906 1.484375 -3.171875 C 1.285156 -2.960938 1.164062 -2.675781 1.125 -2.3125 Z M 3.265625 -2.328125 "/>
</g>
<g id="glyph-0-20">
<path d="M 3.734375 -5.46875 L 3.734375 -4.9375 L 3 -4.9375 C 2.769531 -4.9375 2.609375 -4.890625 2.515625 -4.796875 C 2.429688 -4.703125 2.390625 -4.53125 2.390625 -4.28125 L 2.390625 -3.9375 L 3.734375 -3.9375 L 3.734375 -3.4375 L 2.390625 -3.4375 L 2.390625 0 L 1.734375 0 L 1.734375 -3.4375 L 0.6875 -3.4375 L 0.6875 -3.9375 L 1.734375 -3.9375 L 1.734375 -4.21875 C 1.734375 -4.644531 1.832031 -4.957031 2.03125 -5.15625 C 2.226562 -5.363281 2.539062 -5.46875 2.96875 -5.46875 Z M 3.734375 -5.46875 "/>
</g>
<g id="glyph-0-21">
<path d="M 1.890625 1.796875 L 1.890625 -6.75 L 2.453125 -6.75 L 2.453125 -2.78125 L 4.40625 -2.78125 L 4.40625 -2.171875 L 2.453125 -2.171875 L 2.453125 1.796875 Z M 1.890625 1.796875 "/>
</g>
<g id="glyph-0-22">
<path d="M 1.890625 1.796875 L 1.890625 -2.171875 L -0.078125 -2.171875 L -0.078125 -2.78125 L 4.40625 -2.78125 L 4.40625 -2.171875 L 2.453125 -2.171875 L 2.453125 1.796875 Z M 1.890625 1.796875 "/>
</g>
<g id="glyph-0-23">
<path d="M 1.890625 1.796875 L 1.890625 -2.171875 L -0.078125 -2.171875 L -0.078125 -2.78125 L 1.890625 -2.78125 L 1.890625 -6.75 L 2.453125 -6.75 L 2.453125 1.796875 Z M 1.890625 1.796875 "/>
</g>
<g id="glyph-0-24">
<path d="M 1.71875 -3.734375 L 2.609375 -3.734375 L 2.609375 -2.671875 L 1.71875 -2.671875 Z M 1.71875 -1.078125 L 2.609375 -1.078125 L 2.609375 0 L 1.71875 0 Z M 1.71875 -1.078125 "/>
</g>
<g id="glyph-0-25">
<path d="M 1.25 -2.265625 L 3.078125 -2.265625 L 3.078125 -1.6875 L 1.25 -1.6875 Z M 1.25 -2.265625 "/>
</g>
<g id="glyph-0-26">
<path d="M 2.453125 -2.171875 L 2.453125 1.796875 L 1.890625 1.796875 L 1.890625 -2.171875 L -0.078125 -2.171875 L -0.078125 -2.78125 L 1.890625 -2.78125 L 1.890625 -6.75 L 2.453125 -6.75 L 2.453125 -2.78125 L 4.40625 -2.78125 L 4.40625 -2.171875 Z M 2.453125 -2.171875 "/>
</g>
<g id="glyph-0-27">
<path d="M -0.078125 -2.171875 L -0.078125 -2.78125 L 1.890625 -2.78125 L 1.890625 -6.75 L 2.453125 -6.75 L 2.453125 -2.78125 L 4.40625 -2.78125 L 4.40625 -2.171875 Z M -0.078125 -2.171875 "/>
</g>
<g id="glyph-0-28">
<path d="M 0.6875 -5.25 L 3.8125 -5.25 L 3.8125 -4.65625 L 1.40625 -4.65625 L 1.40625 -3.09375 L 3.703125 -3.09375 L 3.703125 -2.5 L 1.40625 -2.5 L 1.40625 -0.59375 L 3.875 -0.59375 L 3.875 0 L 0.6875 0 Z M 0.6875 -5.25 "/>
</g>
<g id="glyph-0-29">
<path d="M 2.171875 -3.484375 C 1.835938 -3.484375 1.585938 -3.351562 1.421875 -3.09375 C 1.253906 -2.84375 1.171875 -2.46875 1.171875 -1.96875 C 1.171875 -1.46875 1.253906 -1.085938 1.421875 -0.828125 C 1.585938 -0.578125 1.835938 -0.453125 2.171875 -0.453125 C 2.492188 -0.453125 2.738281 -0.578125 2.90625 -0.828125 C 3.082031 -1.085938 3.171875 -1.46875 3.171875 -1.96875 C 3.171875 -2.46875 3.082031 -2.84375 2.90625 -3.09375 C 2.738281 -3.351562 2.492188 -3.484375 2.171875 -3.484375 Z M 2.171875 -4.03125 C 2.710938 -4.03125 3.128906 -3.851562 3.421875 -3.5 C 3.710938 -3.144531 3.859375 -2.632812 3.859375 -1.96875 C 3.859375 -1.289062 3.710938 -0.773438 3.421875 -0.421875 C 3.128906 -0.0664062 2.710938 0.109375 2.171875 0.109375 C 1.617188 0.109375 1.195312 -0.0664062 0.90625 -0.421875 C 0.625 -0.773438 0.484375 -1.289062 0.484375 -1.96875 C 0.484375 -2.632812 0.625 -3.144531 0.90625 -3.5 C 1.195312 -3.851562 1.617188 -4.03125 2.171875 -4.03125 Z M 2.171875 -4.03125 "/>
</g>
<g id="glyph-0-30">
<path d="M 4.40625 -2.171875 L 3.078125 -2.171875 C 2.679688 -2.171875 2.382812 -2.316406 2.1875 -2.609375 C 1.988281 -2.910156 1.890625 -3.257812 1.890625 -3.65625 L 1.890625 -6.75 L 2.453125 -6.75 L 2.453125 -3.65625 C 2.453125 -3.363281 2.503906 -3.144531 2.609375 -3 C 2.710938 -2.851562 2.867188 -2.78125 3.078125 -2.78125 L 4.40625 -2.78125 Z M 4.40625 -2.171875 "/>
</g>
<g id="glyph-0-31">
<path d="M -0.078125 -2.171875 L -0.078125 -2.78125 L 1.25 -2.78125 C 1.457031 -2.78125 1.613281 -2.851562 1.71875 -3 C 1.832031 -3.144531 1.890625 -3.363281 1.890625 -3.65625 L 1.890625 -6.75 L 2.453125 -6.75 L 2.453125 -3.65625 C 2.453125 -3.257812 2.347656 -2.910156 2.140625 -2.609375 C 1.941406 -2.316406 1.644531 -2.171875 1.25 -2.171875 Z M -0.078125 -2.171875 "/>
</g>
<g id="glyph-1-0">
</g>
<g id="glyph-1-1">
<path d="M 0.78125 -3.9375 L 2.8125 -3.9375 L 2.8125 -0.796875 L 4.09375 -0.796875 L 4.09375 0 L 0.5 0 L 0.5 -0.796875 L 1.78125 -0.796875 L 1.78125 -3.140625 L 0.78125 -3.140625 Z M 1.78125 -5.859375 L 2.8125 -5.859375 L 2.8125 -4.65625 L 1.78125 -4.65625 Z M 1.78125 -5.859375 "/>
</g>
<g id="glyph-1-2">
<path d="M 2.421875 -5.0625 L 2.421875 -3.9375 L 3.78125 -3.9375 L 3.78125 -3.140625 L 2.421875 -3.140625 L 2.421875 -1.28125 C 2.421875 -1.101562 2.460938 -0.976562 2.546875 -0.90625 C 2.640625 -0.832031 2.785156 -0.796875 2.984375 -0.796875 L 3.78125 -0.796875 L 3.78125 0 L 2.90625 0 C 2.3125 0 1.910156 -0.09375 1.703125 -0.28125 C 1.492188 -0.46875 1.390625 -0.816406 1.390625 -1.328125 L 1.390625 -3.140625 L 0.390625 -3.140625 L 0.390625 -3.9375 L 1.390625 -3.9375 L 1.390625 -5.0625 Z M 2.421875 -5.0625 "/>
</g>
<g id="glyph-1-3">
<path d="M 3.484375 -3.8125 L 3.484375 -2.921875 C 3.296875 -3.035156 3.097656 -3.125 2.890625 -3.1875 C 2.679688 -3.25 2.476562 -3.28125 2.28125 -3.28125 C 2.050781 -3.28125 1.875 -3.242188 1.75 -3.171875 C 1.632812 -3.109375 1.578125 -3.015625 1.578125 -2.890625 C 1.578125 -2.703125 1.828125 -2.550781 2.328125 -2.4375 L 2.375 -2.421875 L 2.671875 -2.34375 C 3.046875 -2.257812 3.316406 -2.117188 3.484375 -1.921875 C 3.660156 -1.722656 3.75 -1.453125 3.75 -1.109375 C 3.75 -0.703125 3.613281 -0.394531 3.34375 -0.1875 C 3.082031 0.0078125 2.6875 0.109375 2.15625 0.109375 C 1.914062 0.109375 1.671875 0.0859375 1.421875 0.046875 C 1.171875 0.00390625 0.921875 -0.0546875 0.671875 -0.140625 L 0.671875 -1.046875 C 0.898438 -0.910156 1.128906 -0.804688 1.359375 -0.734375 C 1.597656 -0.671875 1.828125 -0.640625 2.046875 -0.640625 C 2.285156 -0.640625 2.46875 -0.675781 2.59375 -0.75 C 2.71875 -0.820312 2.78125 -0.925781 2.78125 -1.0625 C 2.78125 -1.1875 2.734375 -1.285156 2.640625 -1.359375 C 2.554688 -1.429688 2.347656 -1.507812 2.015625 -1.59375 L 1.734375 -1.65625 C 1.335938 -1.738281 1.050781 -1.875 0.875 -2.0625 C 0.695312 -2.257812 0.609375 -2.515625 0.609375 -2.828125 C 0.609375 -3.210938 0.742188 -3.507812 1.015625 -3.71875 C 1.285156 -3.925781 1.671875 -4.03125 2.171875 -4.03125 C 2.390625 -4.03125 2.609375 -4.007812 2.828125 -3.96875 C 3.054688 -3.9375 3.273438 -3.882812 3.484375 -3.8125 Z M 3.484375 -3.8125 "/>
</g>
<g id="glyph-1-4">
<path d="M 3.875 -0.1875 C 3.632812 -0.09375 3.390625 -0.0195312 3.140625 0.03125 C 2.890625 0.0820312 2.628906 0.109375 2.359375 0.109375 C 1.703125 0.109375 1.195312 -0.0664062 0.84375 -0.421875 C 0.5 -0.773438 0.328125 -1.285156 0.328125 -1.953125 C 0.328125 -2.597656 0.492188 -3.101562 0.828125 -3.46875 C 1.160156 -3.84375 1.617188 -4.03125 2.203125 -4.03125 C 2.785156 -4.03125 3.238281 -3.859375 3.5625 -3.515625 C 3.882812 -3.171875 4.046875 -2.679688 4.046875 -2.046875 L 4.046875 -1.640625 L 1.375 -1.640625 C 1.375 -1.328125 1.460938 -1.09375 1.640625 -0.9375 C 1.828125 -0.789062 2.097656 -0.71875 2.453125 -0.71875 C 2.691406 -0.71875 2.925781 -0.75 3.15625 -0.8125 C 3.382812 -0.882812 3.625 -0.992188 3.875 -1.140625 Z M 3 -2.40625 C 3 -2.675781 2.929688 -2.878906 2.796875 -3.015625 C 2.660156 -3.160156 2.460938 -3.234375 2.203125 -3.234375 C 1.960938 -3.234375 1.769531 -3.160156 1.625 -3.015625 C 1.488281 -2.867188 1.40625 -2.664062 1.375 -2.40625 Z M 3 -2.40625 "/>
</g>
<g id="glyph-1-5">
<path d="M 1.359375 -1.640625 L 1.359375 -4.6875 L 0.3125 -4.6875 L 0.3125 -5.46875 L 2.390625 -5.46875 L 2.390625 -1.640625 C 2.390625 -1.328125 2.4375 -1.109375 2.53125 -0.984375 C 2.632812 -0.859375 2.800781 -0.796875 3.03125 -0.796875 L 3.84375 -0.796875 L 3.84375 0 L 2.734375 0 C 2.242188 0 1.890625 -0.125 1.671875 -0.375 C 1.460938 -0.632812 1.359375 -1.054688 1.359375 -1.640625 Z M 1.359375 -1.640625 "/>
</g>
<g id="glyph-1-6">
<path d="M 2.59375 -4.28125 L 2.59375 -3.9375 L 3.8125 -3.9375 L 3.8125 -3.140625 L 2.59375 -3.140625 L 2.59375 0 L 1.5625 0 L 1.5625 -3.140625 L 0.609375 -3.140625 L 0.609375 -3.9375 L 1.5625 -3.9375 L 1.5625 -4.21875 C 1.5625 -4.6875 1.660156 -5.007812 1.859375 -5.1875 C 2.054688 -5.375 2.425781 -5.46875 2.96875 -5.46875 L 3.8125 -5.46875 L 3.8125 -4.6875 L 3 -4.6875 C 2.84375 -4.6875 2.738281 -4.65625 2.6875 -4.59375 C 2.632812 -4.539062 2.601562 -4.4375 2.59375 -4.28125 Z M 2.59375 -4.28125 "/>
</g>
<g id="glyph-1-7">
<path d="M 1.515625 -4.3125 L 1.515625 -0.9375 L 1.796875 -0.9375 C 2.203125 -0.9375 2.492188 -1.0625 2.671875 -1.3125 C 2.847656 -1.570312 2.9375 -2.007812 2.9375 -2.625 C 2.9375 -3.238281 2.847656 -3.671875 2.671875 -3.921875 C 2.492188 -4.179688 2.203125 -4.3125 1.796875 -4.3125 Z M 0.484375 -5.25 L 1.59375 -5.25 C 2.445312 -5.25 3.0625 -5.046875 3.4375 -4.640625 C 3.820312 -4.234375 4.015625 -3.5625 4.015625 -2.625 C 4.015625 -1.695312 3.820312 -1.023438 3.4375 -0.609375 C 3.0625 -0.203125 2.445312 0 1.59375 0 L 0.484375 0 Z M 0.484375 -5.25 "/>
</g>
<g id="glyph-1-8">
<path d="M 2.171875 -3.203125 C 1.921875 -3.203125 1.722656 -3.09375 1.578125 -2.875 C 1.441406 -2.65625 1.375 -2.351562 1.375 -1.96875 C 1.375 -1.582031 1.441406 -1.28125 1.578125 -1.0625 C 1.722656 -0.84375 1.921875 -0.734375 2.171875 -0.734375 C 2.421875 -0.734375 2.613281 -0.84375 2.75 -1.0625 C 2.894531 -1.28125 2.96875 -1.582031 2.96875 -1.96875 C 2.96875 -2.351562 2.894531 -2.65625 2.75 -2.875 C 2.613281 -3.09375 2.421875 -3.203125 2.171875 -3.203125 Z M 0.34375 -1.96875 C 0.34375 -2.601562 0.503906 -3.101562 0.828125 -3.46875 C 1.160156 -3.84375 1.609375 -4.03125 2.171875 -4.03125 C 2.722656 -4.03125 3.160156 -3.84375 3.484375 -3.46875 C 3.816406 -3.101562 3.984375 -2.601562 3.984375 -1.96875 C 3.984375 -1.332031 3.816406 -0.828125 3.484375 -0.453125 C 3.160156 -0.078125 2.722656 0.109375 2.171875 0.109375 C 1.609375 0.109375 1.160156 -0.078125 0.828125 -0.453125 C 0.503906 -0.828125 0.34375 -1.332031 0.34375 -1.96875 Z M 0.34375 -1.96875 "/>
</g>
<g id="glyph-1-9">
<path d="M 0.5625 -1.375 L 0.5625 -3.9375 L 1.59375 -3.9375 L 1.59375 -1.53125 C 1.59375 -1.25 1.628906 -1.046875 1.703125 -0.921875 C 1.785156 -0.796875 1.921875 -0.734375 2.109375 -0.734375 C 2.296875 -0.734375 2.441406 -0.816406 2.546875 -0.984375 C 2.648438 -1.148438 2.703125 -1.378906 2.703125 -1.671875 L 2.703125 -3.9375 L 3.734375 -3.9375 L 3.734375 0 L 2.703125 0 L 2.703125 -0.578125 C 2.628906 -0.359375 2.503906 -0.1875 2.328125 -0.0625 C 2.148438 0.0507812 1.941406 0.109375 1.703125 0.109375 C 1.328125 0.109375 1.039062 -0.015625 0.84375 -0.265625 C 0.65625 -0.515625 0.5625 -0.882812 0.5625 -1.375 Z M 0.5625 -1.375 "/>
</g>
<g id="glyph-1-10">
<path d="M 2.984375 -1.953125 C 2.984375 -2.335938 2.921875 -2.632812 2.796875 -2.84375 C 2.671875 -3.0625 2.5 -3.171875 2.28125 -3.171875 C 2.050781 -3.171875 1.867188 -3.0625 1.734375 -2.84375 C 1.609375 -2.632812 1.546875 -2.335938 1.546875 -1.953125 C 1.546875 -1.578125 1.609375 -1.28125 1.734375 -1.0625 C 1.867188 -0.84375 2.050781 -0.734375 2.28125 -0.734375 C 2.5 -0.734375 2.671875 -0.84375 2.796875 -1.0625 C 2.921875 -1.28125 2.984375 -1.578125 2.984375 -1.953125 Z M 1.546875 -3.375 C 1.679688 -3.59375 1.832031 -3.753906 2 -3.859375 C 2.164062 -3.972656 2.351562 -4.03125 2.5625 -4.03125 C 3.03125 -4.03125 3.390625 -3.851562 3.640625 -3.5 C 3.890625 -3.144531 4.015625 -2.632812 4.015625 -1.96875 C 4.015625 -1.3125 3.890625 -0.800781 3.640625 -0.4375 C 3.398438 -0.0703125 3.050781 0.109375 2.59375 0.109375 C 2.363281 0.109375 2.160156 0.0507812 1.984375 -0.0625 C 1.804688 -0.1875 1.660156 -0.359375 1.546875 -0.578125 L 1.546875 0 L 0.53125 0 L 0.53125 -5.46875 L 1.546875 -5.46875 Z M 1.546875 -3.375 "/>
</g>
<g id="glyph-1-11">
<path d="M 1.796875 -2.296875 C 1.273438 -2.503906 0.921875 -2.71875 0.734375 -2.9375 C 0.546875 -3.15625 0.453125 -3.445312 0.453125 -3.8125 C 0.453125 -4.289062 0.601562 -4.664062 0.90625 -4.9375 C 1.21875 -5.207031 1.640625 -5.34375 2.171875 -5.34375 C 2.410156 -5.34375 2.648438 -5.316406 2.890625 -5.265625 C 3.128906 -5.210938 3.367188 -5.128906 3.609375 -5.015625 L 3.609375 -4 C 3.390625 -4.15625 3.160156 -4.273438 2.921875 -4.359375 C 2.691406 -4.441406 2.46875 -4.484375 2.25 -4.484375 C 2 -4.484375 1.804688 -4.429688 1.671875 -4.328125 C 1.535156 -4.234375 1.46875 -4.09375 1.46875 -3.90625 C 1.46875 -3.757812 1.515625 -3.640625 1.609375 -3.546875 C 1.710938 -3.453125 1.914062 -3.347656 2.21875 -3.234375 L 2.671875 -3.0625 C 3.097656 -2.90625 3.410156 -2.695312 3.609375 -2.4375 C 3.804688 -2.1875 3.90625 -1.867188 3.90625 -1.484375 C 3.90625 -0.953125 3.75 -0.550781 3.4375 -0.28125 C 3.125 -0.0195312 2.648438 0.109375 2.015625 0.109375 C 1.753906 0.109375 1.492188 0.078125 1.234375 0.015625 C 0.972656 -0.046875 0.71875 -0.140625 0.46875 -0.265625 L 0.46875 -1.34375 C 0.75 -1.144531 1.019531 -0.992188 1.28125 -0.890625 C 1.539062 -0.796875 1.796875 -0.75 2.046875 -0.75 C 2.304688 -0.75 2.503906 -0.804688 2.640625 -0.921875 C 2.785156 -1.046875 2.859375 -1.210938 2.859375 -1.421875 C 2.859375 -1.578125 2.8125 -1.710938 2.71875 -1.828125 C 2.625 -1.953125 2.484375 -2.046875 2.296875 -2.109375 Z M 1.796875 -2.296875 "/>
</g>
<g id="glyph-1-12">
<path d="M 4.046875 -2.859375 C 3.929688 -2.953125 3.796875 -3.023438 3.640625 -3.078125 C 3.492188 -3.128906 3.332031 -3.15625 3.15625 -3.15625 C 2.9375 -3.15625 2.742188 -3.117188 2.578125 -3.046875 C 2.421875 -2.972656 2.296875 -2.863281 2.203125 -2.71875 C 2.148438 -2.625 2.109375 -2.515625 2.078125 -2.390625 C 2.054688 -2.265625 2.046875 -2.070312 2.046875 -1.8125 L 2.046875 0 L 1.03125 0 L 1.03125 -3.9375 L 2.046875 -3.9375 L 2.046875 -3.328125 C 2.148438 -3.554688 2.304688 -3.726562 2.515625 -3.84375 C 2.722656 -3.96875 2.96875 -4.03125 3.25 -4.03125 C 3.382812 -4.03125 3.519531 -4.015625 3.65625 -3.984375 C 3.789062 -3.953125 3.921875 -3.898438 4.046875 -3.828125 Z M 4.046875 -2.859375 "/>
</g>
<g id="glyph-1-13">
<path d="M 3.765625 -2.5625 L 3.765625 0 L 2.75 0 L 2.75 -2.40625 C 2.75 -2.6875 2.707031 -2.890625 2.625 -3.015625 C 2.539062 -3.140625 2.40625 -3.203125 2.21875 -3.203125 C 2.039062 -3.203125 1.894531 -3.117188 1.78125 -2.953125 C 1.675781 -2.785156 1.625 -2.550781 1.625 -2.25 L 1.625 0 L 0.609375 0 L 0.609375 -3.9375 L 1.625 -3.9375 L 1.625 -3.34375 C 1.695312 -3.5625 1.820312 -3.726562 2 -3.84375 C 2.175781 -3.96875 2.390625 -4.03125 2.640625 -4.03125 C 3.015625 -4.03125 3.296875 -3.90625 3.484375 -3.65625 C 3.671875 -3.414062 3.765625 -3.050781 3.765625 -2.5625 Z M 3.765625 -2.5625 "/>
</g>
<g id="glyph-1-14">
<path d="M 2.828125 -2.03125 C 2.828125 -2.382812 2.757812 -2.664062 2.625 -2.875 C 2.488281 -3.09375 2.3125 -3.203125 2.09375 -3.203125 C 1.875 -3.203125 1.695312 -3.09375 1.5625 -2.875 C 1.4375 -2.664062 1.375 -2.382812 1.375 -2.03125 C 1.375 -1.675781 1.4375 -1.390625 1.5625 -1.171875 C 1.695312 -0.960938 1.875 -0.859375 2.09375 -0.859375 C 2.3125 -0.859375 2.488281 -0.960938 2.625 -1.171875 C 2.757812 -1.390625 2.828125 -1.675781 2.828125 -2.03125 Z M 3.859375 -0.296875 C 3.859375 0.335938 3.710938 0.789062 3.421875 1.0625 C 3.140625 1.34375 2.679688 1.484375 2.046875 1.484375 C 1.828125 1.484375 1.609375 1.46875 1.390625 1.4375 C 1.179688 1.40625 0.96875 1.359375 0.75 1.296875 L 0.75 0.359375 C 0.945312 0.460938 1.144531 0.539062 1.34375 0.59375 C 1.550781 0.644531 1.757812 0.671875 1.96875 0.671875 C 2.257812 0.671875 2.472656 0.597656 2.609375 0.453125 C 2.753906 0.316406 2.828125 0.109375 2.828125 -0.171875 L 2.828125 -0.609375 C 2.722656 -0.421875 2.585938 -0.28125 2.421875 -0.1875 C 2.253906 -0.09375 2.050781 -0.046875 1.8125 -0.046875 C 1.363281 -0.046875 1.003906 -0.222656 0.734375 -0.578125 C 0.472656 -0.929688 0.34375 -1.410156 0.34375 -2.015625 C 0.34375 -2.628906 0.472656 -3.117188 0.734375 -3.484375 C 1.003906 -3.859375 1.363281 -4.046875 1.8125 -4.046875 C 2.03125 -4.046875 2.226562 -3.988281 2.40625 -3.875 C 2.582031 -3.769531 2.722656 -3.625 2.828125 -3.4375 L 2.828125 -3.9375 L 3.859375 -3.9375 Z M 3.859375 -0.296875 "/>
</g>
<g id="glyph-1-15">
<path d="M 1.53125 -0.921875 L 3.734375 -0.921875 L 3.734375 0 L 0.40625 0 L 0.40625 -0.890625 L 0.96875 -1.484375 C 1.632812 -2.191406 2.039062 -2.628906 2.1875 -2.796875 C 2.363281 -2.992188 2.488281 -3.171875 2.5625 -3.328125 C 2.644531 -3.484375 2.6875 -3.640625 2.6875 -3.796875 C 2.6875 -4.023438 2.613281 -4.203125 2.46875 -4.328125 C 2.320312 -4.460938 2.117188 -4.53125 1.859375 -4.53125 C 1.679688 -4.53125 1.472656 -4.492188 1.234375 -4.421875 C 1.003906 -4.347656 0.765625 -4.238281 0.515625 -4.09375 L 0.515625 -5.0625 C 0.765625 -5.15625 1.007812 -5.222656 1.25 -5.265625 C 1.488281 -5.316406 1.71875 -5.34375 1.9375 -5.34375 C 2.5 -5.34375 2.9375 -5.210938 3.25 -4.953125 C 3.570312 -4.691406 3.734375 -4.335938 3.734375 -3.890625 C 3.734375 -3.691406 3.695312 -3.5 3.625 -3.3125 C 3.5625 -3.132812 3.441406 -2.9375 3.265625 -2.71875 C 3.140625 -2.550781 2.800781 -2.191406 2.25 -1.640625 C 1.945312 -1.335938 1.707031 -1.097656 1.53125 -0.921875 Z M 1.53125 -0.921875 "/>
</g>
<g id="glyph-1-16">
<path d="M 2.4375 -4.09375 L 1.109375 -2.015625 L 2.4375 -2.015625 Z M 2.34375 -5.25 L 3.4375 -5.25 L 3.4375 -2.015625 L 4.015625 -2.015625 L 4.015625 -1.125 L 3.4375 -1.125 L 3.4375 0 L 2.4375 0 L 2.4375 -1.125 L 0.359375 -1.125 L 0.359375 -2.140625 Z M 2.34375 -5.25 "/>
</g>
<g id="glyph-1-17">
<path d="M 2.171875 -2.34375 C 1.929688 -2.34375 1.738281 -2.269531 1.59375 -2.125 C 1.457031 -1.976562 1.390625 -1.785156 1.390625 -1.546875 C 1.390625 -1.296875 1.457031 -1.097656 1.59375 -0.953125 C 1.738281 -0.804688 1.929688 -0.734375 2.171875 -0.734375 C 2.398438 -0.734375 2.585938 -0.804688 2.734375 -0.953125 C 2.878906 -1.109375 2.953125 -1.304688 2.953125 -1.546875 C 2.953125 -1.785156 2.878906 -1.976562 2.734375 -2.125 C 2.585938 -2.269531 2.398438 -2.34375 2.171875 -2.34375 Z M 1.390625 -2.78125 C 1.128906 -2.875 0.925781 -3.015625 0.78125 -3.203125 C 0.644531 -3.398438 0.578125 -3.644531 0.578125 -3.9375 C 0.578125 -4.375 0.71875 -4.71875 1 -4.96875 C 1.289062 -5.21875 1.679688 -5.34375 2.171875 -5.34375 C 2.660156 -5.34375 3.046875 -5.21875 3.328125 -4.96875 C 3.609375 -4.71875 3.75 -4.375 3.75 -3.9375 C 3.75 -3.65625 3.679688 -3.414062 3.546875 -3.21875 C 3.410156 -3.019531 3.210938 -2.875 2.953125 -2.78125 C 3.242188 -2.6875 3.472656 -2.523438 3.640625 -2.296875 C 3.804688 -2.066406 3.890625 -1.796875 3.890625 -1.484375 C 3.890625 -0.972656 3.738281 -0.578125 3.4375 -0.296875 C 3.132812 -0.0234375 2.710938 0.109375 2.171875 0.109375 C 1.617188 0.109375 1.191406 -0.0234375 0.890625 -0.296875 C 0.597656 -0.578125 0.453125 -0.972656 0.453125 -1.484375 C 0.453125 -1.804688 0.535156 -2.082031 0.703125 -2.3125 C 0.867188 -2.539062 1.097656 -2.695312 1.390625 -2.78125 Z M 1.5 -3.84375 C 1.5 -3.632812 1.554688 -3.46875 1.671875 -3.34375 C 1.796875 -3.226562 1.960938 -3.171875 2.171875 -3.171875 C 2.367188 -3.171875 2.523438 -3.226562 2.640625 -3.34375 C 2.765625 -3.46875 2.828125 -3.632812 2.828125 -3.84375 C 2.828125 -4.050781 2.765625 -4.210938 2.640625 -4.328125 C 2.523438 -4.453125 2.367188 -4.515625 2.171875 -4.515625 C 1.960938 -4.515625 1.796875 -4.453125 1.671875 -4.328125 C 1.554688 -4.210938 1.5 -4.050781 1.5 -3.84375 Z M 1.5 -3.84375 "/>
</g>
<g id="glyph-2-0">
</g>
<g id="glyph-2-1">
<path d="M 0.546875 -0.59375 L 1.65625 -0.59375 L 2.421875 -4.609375 L 1.1875 -4.34375 L 1.3125 -4.984375 L 2.546875 -5.25 L 3.265625 -5.25 L 2.359375 -0.59375 L 3.4375 -0.59375 L 3.328125 0 L 0.4375 0 Z M 0.546875 -0.59375 "/>
</g>
<g id="glyph-2-2">
<path d="M 0.9375 -0.59375 L 3.34375 -0.59375 L 3.234375 0 L 0.015625 0 L 0.140625 -0.59375 L 1.234375 -1.5625 L 1.375 -1.6875 C 2.625 -2.789062 3.25 -3.582031 3.25 -4.0625 C 3.25 -4.269531 3.175781 -4.4375 3.03125 -4.5625 C 2.882812 -4.6875 2.675781 -4.75 2.40625 -4.75 C 2.1875 -4.75 1.953125 -4.707031 1.703125 -4.625 C 1.460938 -4.550781 1.191406 -4.4375 0.890625 -4.28125 L 1.03125 -5 C 1.300781 -5.113281 1.554688 -5.195312 1.796875 -5.25 C 2.046875 -5.3125 2.28125 -5.34375 2.5 -5.34375 C 2.9375 -5.34375 3.285156 -5.226562 3.546875 -5 C 3.816406 -4.769531 3.953125 -4.476562 3.953125 -4.125 C 3.953125 -3.894531 3.910156 -3.675781 3.828125 -3.46875 C 3.742188 -3.269531 3.609375 -3.050781 3.421875 -2.8125 C 3.347656 -2.707031 3.207031 -2.5625 3 -2.375 C 2.800781 -2.195312 2.488281 -1.925781 2.0625 -1.5625 Z M 0.9375 -0.59375 "/>
</g>
<g id="glyph-2-3">
<path d="M 4.375 -5.46875 L 4.265625 -4.9375 L 3.53125 -4.9375 C 3.3125 -4.9375 3.144531 -4.882812 3.03125 -4.78125 C 2.914062 -4.6875 2.835938 -4.519531 2.796875 -4.28125 L 2.71875 -3.9375 L 4.078125 -3.9375 L 3.984375 -3.4375 L 2.625 -3.4375 L 1.953125 0 L 1.3125 0 L 1.984375 -3.4375 L 0.921875 -3.4375 L 1.03125 -3.9375 L 2.078125 -3.9375 L 2.125 -4.21875 C 2.21875 -4.664062 2.375 -4.984375 2.59375 -5.171875 C 2.820312 -5.367188 3.160156 -5.46875 3.609375 -5.46875 Z M 4.375 -5.46875 "/>
</g>
<g id="glyph-2-4">
<path d="M 2.4375 -1.984375 C 2.15625 -1.984375 1.945312 -1.972656 1.8125 -1.953125 C 1.675781 -1.929688 1.554688 -1.898438 1.453125 -1.859375 C 1.296875 -1.796875 1.164062 -1.691406 1.0625 -1.546875 C 0.96875 -1.410156 0.921875 -1.253906 0.921875 -1.078125 C 0.921875 -0.878906 0.984375 -0.722656 1.109375 -0.609375 C 1.234375 -0.492188 1.394531 -0.4375 1.59375 -0.4375 C 1.945312 -0.4375 2.25 -0.5625 2.5 -0.8125 C 2.75 -1.0625 2.921875 -1.40625 3.015625 -1.84375 L 3.03125 -1.984375 Z M 3.734375 -2.25 L 3.296875 0 L 2.65625 0 L 2.765625 -0.578125 C 2.597656 -0.359375 2.398438 -0.1875 2.171875 -0.0625 C 1.941406 0.0507812 1.695312 0.109375 1.4375 0.109375 C 1.070312 0.109375 0.78125 0.0078125 0.5625 -0.1875 C 0.351562 -0.382812 0.25 -0.644531 0.25 -0.96875 C 0.25 -1.425781 0.429688 -1.789062 0.796875 -2.0625 C 1.160156 -2.34375 1.648438 -2.484375 2.265625 -2.484375 L 3.140625 -2.484375 L 3.171875 -2.703125 C 3.179688 -2.722656 3.1875 -2.742188 3.1875 -2.765625 C 3.1875 -2.785156 3.1875 -2.816406 3.1875 -2.859375 C 3.1875 -3.066406 3.113281 -3.222656 2.96875 -3.328125 C 2.820312 -3.429688 2.609375 -3.484375 2.328125 -3.484375 C 2.128906 -3.484375 1.910156 -3.453125 1.671875 -3.390625 C 1.441406 -3.335938 1.195312 -3.25 0.9375 -3.125 L 1.0625 -3.765625 C 1.320312 -3.847656 1.5625 -3.910156 1.78125 -3.953125 C 2.007812 -4.003906 2.226562 -4.03125 2.4375 -4.03125 C 2.875 -4.03125 3.210938 -3.929688 3.453125 -3.734375 C 3.703125 -3.546875 3.828125 -3.285156 3.828125 -2.953125 C 3.828125 -2.867188 3.816406 -2.765625 3.796875 -2.640625 C 3.785156 -2.523438 3.765625 -2.394531 3.734375 -2.25 Z M 3.734375 -2.25 "/>
</g>
<g id="glyph-2-5">
<path d="M 2.109375 -1.4375 C 2.085938 -1.351562 2.070312 -1.28125 2.0625 -1.21875 C 2.0625 -1.15625 2.0625 -1.101562 2.0625 -1.0625 C 2.0625 -0.882812 2.113281 -0.753906 2.21875 -0.671875 C 2.320312 -0.585938 2.476562 -0.546875 2.6875 -0.546875 L 3.4375 -0.546875 L 3.328125 0 L 2.59375 0 C 2.1875 0 1.882812 -0.0703125 1.6875 -0.21875 C 1.488281 -0.375 1.390625 -0.601562 1.390625 -0.90625 C 1.390625 -0.96875 1.394531 -1.046875 1.40625 -1.140625 C 1.425781 -1.234375 1.445312 -1.335938 1.46875 -1.453125 L 2.203125 -5 L 1.09375 -5 L 1.203125 -5.515625 L 2.953125 -5.515625 Z M 2.109375 -1.4375 "/>
</g>
<g id="glyph-2-6">
<path d="M 3.78125 -3.796875 L 3.671875 -3.171875 C 3.503906 -3.273438 3.328125 -3.351562 3.140625 -3.40625 C 2.953125 -3.46875 2.769531 -3.5 2.59375 -3.5 C 2.269531 -3.5 2.019531 -3.4375 1.84375 -3.3125 C 1.664062 -3.195312 1.578125 -3.03125 1.578125 -2.8125 C 1.578125 -2.582031 1.835938 -2.398438 2.359375 -2.265625 C 2.390625 -2.253906 2.414062 -2.25 2.4375 -2.25 L 2.6875 -2.1875 C 2.957031 -2.113281 3.160156 -2.003906 3.296875 -1.859375 C 3.429688 -1.710938 3.5 -1.53125 3.5 -1.3125 C 3.5 -0.894531 3.332031 -0.550781 3 -0.28125 C 2.664062 -0.0195312 2.21875 0.109375 1.65625 0.109375 C 1.46875 0.109375 1.269531 0.0859375 1.0625 0.046875 C 0.851562 0.00390625 0.632812 -0.0546875 0.40625 -0.140625 L 0.53125 -0.8125 C 0.75 -0.6875 0.960938 -0.59375 1.171875 -0.53125 C 1.378906 -0.46875 1.582031 -0.4375 1.78125 -0.4375 C 2.09375 -0.4375 2.347656 -0.503906 2.546875 -0.640625 C 2.742188 -0.785156 2.84375 -0.96875 2.84375 -1.1875 C 2.84375 -1.414062 2.613281 -1.59375 2.15625 -1.71875 C 2.101562 -1.726562 2.066406 -1.734375 2.046875 -1.734375 L 1.8125 -1.796875 C 1.507812 -1.878906 1.285156 -1.992188 1.140625 -2.140625 C 1.003906 -2.285156 0.9375 -2.484375 0.9375 -2.734375 C 0.9375 -3.128906 1.085938 -3.441406 1.390625 -3.671875 C 1.703125 -3.910156 2.125 -4.03125 2.65625 -4.03125 C 2.863281 -4.03125 3.0625 -4.007812 3.25 -3.96875 C 3.4375 -3.9375 3.613281 -3.878906 3.78125 -3.796875 Z M 3.78125 -3.796875 "/>
</g>
<g id="glyph-2-7">
<path d="M 3.296875 -2.3125 C 3.304688 -2.375 3.3125 -2.425781 3.3125 -2.46875 C 3.320312 -2.507812 3.328125 -2.550781 3.328125 -2.59375 C 3.328125 -2.875 3.25 -3.09375 3.09375 -3.25 C 2.945312 -3.40625 2.738281 -3.484375 2.46875 -3.484375 C 2.175781 -3.484375 1.910156 -3.378906 1.671875 -3.171875 C 1.441406 -2.960938 1.273438 -2.675781 1.171875 -2.3125 Z M 3.375 -0.203125 C 3.132812 -0.0976562 2.894531 -0.0195312 2.65625 0.03125 C 2.425781 0.0820312 2.1875 0.109375 1.9375 0.109375 C 1.414062 0.109375 1.019531 -0.0195312 0.75 -0.28125 C 0.476562 -0.550781 0.34375 -0.9375 0.34375 -1.4375 C 0.34375 -1.800781 0.410156 -2.15625 0.546875 -2.5 C 0.691406 -2.851562 0.890625 -3.160156 1.140625 -3.421875 C 1.335938 -3.617188 1.550781 -3.769531 1.78125 -3.875 C 2.019531 -3.988281 2.265625 -4.046875 2.515625 -4.046875 C 2.953125 -4.046875 3.300781 -3.910156 3.5625 -3.640625 C 3.820312 -3.367188 3.953125 -3.007812 3.953125 -2.5625 C 3.953125 -2.476562 3.945312 -2.378906 3.9375 -2.265625 C 3.925781 -2.148438 3.910156 -2 3.890625 -1.8125 L 1.046875 -1.8125 C 1.035156 -1.738281 1.023438 -1.671875 1.015625 -1.609375 C 1.003906 -1.546875 1 -1.492188 1 -1.453125 C 1 -1.117188 1.085938 -0.867188 1.265625 -0.703125 C 1.453125 -0.535156 1.71875 -0.453125 2.0625 -0.453125 C 2.269531 -0.453125 2.492188 -0.484375 2.734375 -0.546875 C 2.984375 -0.609375 3.238281 -0.707031 3.5 -0.84375 Z M 3.375 -0.203125 "/>
</g>
<g id="glyph-2-8">
<path d="M 2.6875 -2.8125 C 2.945312 -2.757812 3.148438 -2.632812 3.296875 -2.4375 C 3.453125 -2.25 3.53125 -2.007812 3.53125 -1.71875 C 3.53125 -1.164062 3.332031 -0.722656 2.9375 -0.390625 C 2.550781 -0.0546875 2.03125 0.109375 1.375 0.109375 C 1.113281 0.109375 0.863281 0.0820312 0.625 0.03125 C 0.382812 -0.0078125 0.15625 -0.0703125 -0.0625 -0.15625 L 0.078125 -0.859375 C 0.285156 -0.742188 0.5 -0.65625 0.71875 -0.59375 C 0.945312 -0.53125 1.175781 -0.5 1.40625 -0.5 C 1.832031 -0.5 2.175781 -0.609375 2.4375 -0.828125 C 2.695312 -1.046875 2.828125 -1.328125 2.828125 -1.671875 C 2.828125 -1.953125 2.742188 -2.160156 2.578125 -2.296875 C 2.410156 -2.441406 2.164062 -2.515625 1.84375 -2.515625 L 1.3125 -2.515625 L 1.421875 -3.09375 L 1.953125 -3.09375 C 2.328125 -3.09375 2.625 -3.179688 2.84375 -3.359375 C 3.0625 -3.535156 3.171875 -3.769531 3.171875 -4.0625 C 3.171875 -4.289062 3.097656 -4.460938 2.953125 -4.578125 C 2.804688 -4.691406 2.582031 -4.75 2.28125 -4.75 C 2.09375 -4.75 1.882812 -4.722656 1.65625 -4.671875 C 1.425781 -4.628906 1.179688 -4.5625 0.921875 -4.46875 L 1.046875 -5.125 C 1.335938 -5.195312 1.59375 -5.25 1.8125 -5.28125 C 2.039062 -5.320312 2.253906 -5.34375 2.453125 -5.34375 C 2.890625 -5.34375 3.234375 -5.238281 3.484375 -5.03125 C 3.742188 -4.832031 3.875 -4.550781 3.875 -4.1875 C 3.875 -3.832031 3.769531 -3.53125 3.5625 -3.28125 C 3.351562 -3.039062 3.0625 -2.882812 2.6875 -2.8125 Z M 2.6875 -2.8125 "/>
</g>
<g id="glyph-2-9">
<path d="M 3.03125 -2.09375 C 3.03125 -2.351562 2.957031 -2.554688 2.8125 -2.703125 C 2.675781 -2.847656 2.484375 -2.921875 2.234375 -2.921875 C 1.898438 -2.921875 1.613281 -2.769531 1.375 -2.46875 C 1.144531 -2.175781 1.03125 -1.804688 1.03125 -1.359375 C 1.03125 -1.078125 1.097656 -0.851562 1.234375 -0.6875 C 1.378906 -0.53125 1.582031 -0.453125 1.84375 -0.453125 C 2.175781 -0.453125 2.457031 -0.609375 2.6875 -0.921875 C 2.914062 -1.234375 3.03125 -1.625 3.03125 -2.09375 Z M 3.96875 -5.140625 L 3.84375 -4.484375 C 3.707031 -4.566406 3.554688 -4.628906 3.390625 -4.671875 C 3.234375 -4.722656 3.066406 -4.75 2.890625 -4.75 C 2.441406 -4.75 2.066406 -4.578125 1.765625 -4.234375 C 1.472656 -3.898438 1.265625 -3.40625 1.140625 -2.75 C 1.296875 -2.988281 1.484375 -3.164062 1.703125 -3.28125 C 1.921875 -3.40625 2.164062 -3.46875 2.4375 -3.46875 C 2.851562 -3.46875 3.171875 -3.347656 3.390625 -3.109375 C 3.617188 -2.878906 3.734375 -2.550781 3.734375 -2.125 C 3.734375 -1.84375 3.6875 -1.5625 3.59375 -1.28125 C 3.5 -1.007812 3.375 -0.773438 3.21875 -0.578125 C 3.03125 -0.347656 2.820312 -0.175781 2.59375 -0.0625 C 2.363281 0.0507812 2.101562 0.109375 1.8125 0.109375 C 1.332031 0.109375 0.960938 -0.0234375 0.703125 -0.296875 C 0.453125 -0.578125 0.328125 -0.972656 0.328125 -1.484375 C 0.328125 -1.867188 0.367188 -2.269531 0.453125 -2.6875 C 0.546875 -3.101562 0.675781 -3.484375 0.84375 -3.828125 C 1.070312 -4.335938 1.363281 -4.71875 1.71875 -4.96875 C 2.070312 -5.21875 2.492188 -5.34375 2.984375 -5.34375 C 3.160156 -5.34375 3.332031 -5.320312 3.5 -5.28125 C 3.664062 -5.25 3.820312 -5.203125 3.96875 -5.140625 Z M 3.96875 -5.140625 "/>
</g>
<g id="glyph-2-10">
<path d="M 1.234375 -5.25 L 3.890625 -5.25 L 3.78125 -4.65625 L 1.765625 -4.65625 L 1.515625 -3.359375 C 1.628906 -3.398438 1.738281 -3.425781 1.84375 -3.4375 C 1.945312 -3.457031 2.050781 -3.46875 2.15625 -3.46875 C 2.59375 -3.46875 2.945312 -3.332031 3.21875 -3.0625 C 3.488281 -2.800781 3.625 -2.453125 3.625 -2.015625 C 3.625 -1.734375 3.5625 -1.453125 3.4375 -1.171875 C 3.3125 -0.898438 3.140625 -0.660156 2.921875 -0.453125 C 2.710938 -0.265625 2.472656 -0.125 2.203125 -0.03125 C 1.941406 0.0625 1.644531 0.109375 1.3125 0.109375 C 1.050781 0.109375 0.8125 0.0859375 0.59375 0.046875 C 0.375 0.00390625 0.179688 -0.0507812 0.015625 -0.125 L 0.15625 -0.84375 C 0.351562 -0.726562 0.554688 -0.640625 0.765625 -0.578125 C 0.972656 -0.515625 1.1875 -0.484375 1.40625 -0.484375 C 1.84375 -0.484375 2.203125 -0.617188 2.484375 -0.890625 C 2.773438 -1.171875 2.921875 -1.515625 2.921875 -1.921875 C 2.921875 -2.222656 2.820312 -2.457031 2.625 -2.625 C 2.4375 -2.800781 2.175781 -2.890625 1.84375 -2.890625 C 1.664062 -2.890625 1.476562 -2.863281 1.28125 -2.8125 C 1.082031 -2.769531 0.898438 -2.703125 0.734375 -2.609375 Z M 1.234375 -5.25 "/>
</g>
<g id="glyph-2-11">
<path d="M 1.6875 -2.640625 C 1.6875 -2.765625 1.734375 -2.875 1.828125 -2.96875 C 1.921875 -3.0625 2.035156 -3.109375 2.171875 -3.109375 C 2.296875 -3.109375 2.40625 -3.0625 2.5 -2.96875 C 2.59375 -2.875 2.640625 -2.765625 2.640625 -2.640625 C 2.640625 -2.503906 2.59375 -2.390625 2.5 -2.296875 C 2.40625 -2.210938 2.296875 -2.171875 2.171875 -2.171875 C 2.035156 -2.171875 1.921875 -2.210938 1.828125 -2.296875 C 1.734375 -2.390625 1.6875 -2.503906 1.6875 -2.640625 Z M 3.984375 -3.59375 C 3.984375 -3.144531 3.914062 -2.660156 3.78125 -2.140625 C 3.65625 -1.617188 3.492188 -1.195312 3.296875 -0.875 C 3.097656 -0.539062 2.867188 -0.289062 2.609375 -0.125 C 2.347656 0.03125 2.039062 0.109375 1.6875 0.109375 C 1.226562 0.109375 0.890625 -0.0351562 0.671875 -0.328125 C 0.453125 -0.617188 0.34375 -1.0625 0.34375 -1.65625 C 0.34375 -2.113281 0.410156 -2.597656 0.546875 -3.109375 C 0.679688 -3.628906 0.847656 -4.050781 1.046875 -4.375 C 1.242188 -4.707031 1.472656 -4.953125 1.734375 -5.109375 C 1.992188 -5.265625 2.296875 -5.34375 2.640625 -5.34375 C 3.097656 -5.34375 3.4375 -5.195312 3.65625 -4.90625 C 3.875 -4.625 3.984375 -4.1875 3.984375 -3.59375 Z M 1.78125 -0.46875 C 1.96875 -0.46875 2.140625 -0.53125 2.296875 -0.65625 C 2.460938 -0.78125 2.597656 -0.953125 2.703125 -1.171875 C 2.867188 -1.503906 3.003906 -1.910156 3.109375 -2.390625 C 3.222656 -2.878906 3.28125 -3.328125 3.28125 -3.734375 C 3.28125 -4.097656 3.222656 -4.359375 3.109375 -4.515625 C 2.992188 -4.679688 2.8125 -4.765625 2.5625 -4.765625 C 2.375 -4.765625 2.195312 -4.703125 2.03125 -4.578125 C 1.875 -4.460938 1.738281 -4.296875 1.625 -4.078125 C 1.457031 -3.753906 1.316406 -3.347656 1.203125 -2.859375 C 1.097656 -2.367188 1.046875 -1.898438 1.046875 -1.453125 C 1.046875 -1.117188 1.101562 -0.867188 1.21875 -0.703125 C 1.34375 -0.546875 1.53125 -0.46875 1.78125 -0.46875 Z M 1.78125 -0.46875 "/>
</g>
</g>
</defs>
<g fill="rgb(50.195312%, 50.195312%, 50.195312%)" fill-opacity="1">
<use xlink:href="#glyph-0-1" x="-1.75" y="3.242853"/>
<use xlink:href="#glyph-0-2" x="2.5844" y="3.242853"/>
<use xlink:href="#glyph-0-2" x="6.9188" y="3.242853"/>
<use xlink:href="#glyph-0-2" x="11.2532" y="3.242853"/>
<use xlink:href="#glyph-0-2" x="15.5876" y="3.242853"/>
<use xlink:href="#glyph-0-2" x="19.922" y="3.242853"/>
<use xlink:href="#glyph-0-2" x="24.2564" y="3.242853"/>
<use xlink:href="#glyph-0-2" x="28.5908" y="3.242853"/>
<use xlink:href="#glyph-0-2" x="32.9252" y="3.242853"/>
<use xlink:href="#glyph-0-2" x="37.2596" y="3.242853"/>
<use xlink:href="#glyph-0-2" x="41.594" y="3.242853"/>
<use xlink:href="#glyph-0-2" x="45.9284" y="3.242853"/>
<use xlink:href="#glyph-0-2" x="50.2628" y="3.242853"/>
<use xlink:href="#glyph-0-2" x="54.5972" y="3.242853"/>
<use xlink:href="#glyph-0-2" x="58.9316" y="3.242853"/>
<use xlink:href="#glyph-0-2" x="63.266" y="3.242853"/>
<use xlink:href="#glyph-0-2" x="67.6004" y="3.242853"/>
<use xlink:href="#glyph-0-2" x="71.9348" y="3.242853"/>
<use xlink:href="#glyph-0-2" x="76.2692" y="3.242853"/>
<use xlink:href="#glyph-0-2" x="80.6036" y="3.242853"/>
<use xlink:href="#glyph-0-2" x="84.938" y="3.242853"/>
<use xlink:href="#glyph-0-2" x="89.2724" y="3.242853"/>
<use xlink:href="#glyph-0-2" x="93.6068" y="3.242853"/>
<use xlink:href="#glyph-0-2" x="97.9412" y="3.242853"/>
<use xlink:href="#glyph-0-2" x="102.2756" y="3.242853"/>
<use xlink:href="#glyph-0-2" x="106.61" y="3.242853"/>
<use xlink:href="#glyph-0-2" x="110.9444" y="3.242853"/>
<use xlink:href="#glyph-0-2" x="115.2788" y="3.242853"/>
<use xlink:href="#glyph-0-2" x="119.6132" y="3.242853"/>
<use xlink:href="#glyph-0-2" x="123.9476" y="3.242853"/>
<use xlink:href="#glyph-0-2" x="128.282" y="3.242853"/>
<use xlink:href="#glyph-0-2" x="132.6164" y="3.242853"/>
<use xlink:href="#glyph-0-2" x="136.9508" y="3.242853"/>
<use xlink:href="#glyph-0-2" x="141.2852" y="3.242853"/>
<use xlink:href="#glyph-0-2" x="145.6196" y="3.242853"/>
<use xlink:href="#glyph-0-2" x="149.954" y="3.242853"/>
<use xlink:href="#glyph-0-2" x="154.2884" y="3.242853"/>
<use xlink:href="#glyph-0-2" x="158.6228" y="3.242853"/>
<use xlink:href="#glyph-0-2" x="162.9572" y="3.242853"/>
<use xlink:href="#glyph-0-2" x="167.2916" y="3.242853"/>
<use xlink:href="#glyph-0-2" x="171.626" y="3.242853"/>
<use xlink:href="#glyph-0-2" x="175.9604" y="3.242853"/>
<use xlink:href="#glyph-0-2" x="180.2948" y="3.242853"/>
<use xlink:href="#glyph-0-2" x="184.6292" y="3.242853"/>
<use xlink:href="#glyph-0-2" x="188.9636" y="3.242853"/>
<use xlink:href="#glyph-0-3" x="193.298" y="3.242853"/>
</g>
<g fill="rgb(50.195312%, 50.195312%, 50.195312%)" fill-opacity="1">
<use xlink:href="#glyph-0-4" x="-1.75" y="11.623224"/>
</g>
<g fill="rgb(0%, 0%, 0%)" fill-opacity="1">
<use xlink:href="#glyph-0-5" x="2.584473" y="11.623224"/>
<use xlink:href="#glyph-0-5" x="6.918873" y="11.623224"/>
<use xlink:href="#glyph-0-5" x="11.253273" y="11.623224"/>
<use xlink:href="#glyph-0-5" x="15.587673" y="11.623224"/>
<use xlink:href="#glyph-0-5" x="19.922073" y="11.623224"/>
<use xlink:href="#glyph-0-5" x="24.256473" y="11.623224"/>
<use xlink:href="#glyph-0-5" x="28.590873" y="11.623224"/>
<use xlink:href="#glyph-0-6" x="32.925273" y="11.623224"/>
<use xlink:href="#glyph-0-7" x="37.259673" y="11.623224"/>
<use xlink:href="#glyph-0-5" x="41.594073" y="11.623224"/>
<use xlink:href="#glyph-0-8" x="45.928473" y="11.623224"/>
<use xlink:href="#glyph-0-9" x="50.262873" y="11.623224"/>
<use xlink:href="#glyph-0-10" x="54.597273" y="11.623224"/>
<use xlink:href="#glyph-0-11" x="58.931673" y="11.623224"/>
<use xlink:href="#glyph-0-12" x="63.266073" y="11.623224"/>
<use xlink:href="#glyph-0-5" x="67.600473" y="11.623224"/>
<use xlink:href="#glyph-0-10" x="71.934873" y="11.623224"/>
<use xlink:href="#glyph-0-13" x="76.269273" y="11.623224"/>
<use xlink:href="#glyph-0-14" x="80.603673" y="11.623224"/>
<use xlink:href="#glyph-0-5" x="84.938073" y="11.623224"/>
<use xlink:href="#glyph-0-15" x="89.272473" y="11.623224"/>
<use xlink:href="#glyph-0-16" x="93.606873" y="11.623224"/>
<use xlink:href="#glyph-0-17" x="97.941273" y="11.623224"/>
<use xlink:href="#glyph-0-18" x="102.275673" y="11.623224"/>
<use xlink:href="#glyph-0-19" x="106.610073" y="11.623224"/>
<use xlink:href="#glyph-0-5" x="110.944473" y="11.623224"/>
<use xlink:href="#glyph-0-20" x="115.278873" y="11.623224"/>
<use xlink:href="#glyph-0-10" x="119.613273" y="11.623224"/>
<use xlink:href="#glyph-0-13" x="123.947673" y="11.623224"/>
<use xlink:href="#glyph-0-11" x="128.282073" y="11.623224"/>
<use xlink:href="#glyph-0-7" x="132.616473" y="11.623224"/>
<use xlink:href="#glyph-0-5" x="136.950873" y="11.623224"/>
<use xlink:href="#glyph-0-18" x="141.285273" y="11.623224"/>
<use xlink:href="#glyph-0-10" x="145.619673" y="11.623224"/>
<use xlink:href="#glyph-0-8" x="149.954073" y="11.623224"/>
<use xlink:href="#glyph-0-9" x="154.288473" y="11.623224"/>
<use xlink:href="#glyph-0-19" x="158.622873" y="11.623224"/>
<use xlink:href="#glyph-0-5" x="162.957273" y="11.623224"/>
<use xlink:href="#glyph-0-5" x="167.291673" y="11.623224"/>
<use xlink:href="#glyph-0-5" x="171.626073" y="11.623224"/>
<use xlink:href="#glyph-0-5" x="175.960473" y="11.623224"/>
<use xlink:href="#glyph-0-5" x="180.294873" y="11.623224"/>
<use xlink:href="#glyph-0-5" x="184.629273" y="11.623224"/>
<use xlink:href="#glyph-0-5" x="188.963673" y="11.623224"/>
</g>
<g fill="rgb(50.195312%, 50.195312%, 50.195312%)" fill-opacity="1">
<use xlink:href="#glyph-0-4" x="193.301269" y="11.623224"/>
</g>
<g fill="rgb(50.195312%, 50.195312%, 50.195312%)" fill-opacity="1">
<use xlink:href="#glyph-0-21" x="-1.75" y="20.003595"/>
<use xlink:href="#glyph-0-2" x="2.5844" y="20.003595"/>
<use xlink:href="#glyph-0-2" x="6.9188" y="20.003595"/>
<use xlink:href="#glyph-0-2" x="11.2532" y="20.003595"/>
<use xlink:href="#glyph-0-2" x="15.5876" y="20.003595"/>
<use xlink:href="#glyph-0-2" x="19.922" y="20.003595"/>
<use xlink:href="#glyph-0-2" x="24.2564" y="20.003595"/>
<use xlink:href="#glyph-0-2" x="28.5908" y="20.003595"/>
<use xlink:href="#glyph-0-2" x="32.9252" y="20.003595"/>
<use xlink:href="#glyph-0-2" x="37.2596" y="20.003595"/>
<use xlink:href="#glyph-0-2" x="41.594" y="20.003595"/>
<use xlink:href="#glyph-0-2" x="45.9284" y="20.003595"/>
<use xlink:href="#glyph-0-2" x="50.2628" y="20.003595"/>
<use xlink:href="#glyph-0-2" x="54.5972" y="20.003595"/>
<use xlink:href="#glyph-0-2" x="58.9316" y="20.003595"/>
<use xlink:href="#glyph-0-22" x="63.266" y="20.003595"/>
<use xlink:href="#glyph-0-2" x="67.6004" y="20.003595"/>
<use xlink:href="#glyph-0-2" x="71.9348" y="20.003595"/>
<use xlink:href="#glyph-0-2" x="76.2692" y="20.003595"/>
<use xlink:href="#glyph-0-2" x="80.6036" y="20.003595"/>
<use xlink:href="#glyph-0-2" x="84.938" y="20.003595"/>
<use xlink:href="#glyph-0-2" x="89.2724" y="20.003595"/>
<use xlink:href="#glyph-0-2" x="93.6068" y="20.003595"/>
<use xlink:href="#glyph-0-2" x="97.9412" y="20.003595"/>
<use xlink:href="#glyph-0-2" x="102.2756" y="20.003595"/>
<use xlink:href="#glyph-0-2" x="106.61" y="20.003595"/>
<use xlink:href="#glyph-0-2" x="110.9444" y="20.003595"/>
<use xlink:href="#glyph-0-2" x="115.2788" y="20.003595"/>
<use xlink:href="#glyph-0-2" x="119.6132" y="20.003595"/>
<use xlink:href="#glyph-0-2" x="123.9476" y="20.003595"/>
<use xlink:href="#glyph-0-22" x="128.282" y="20.003595"/>
<use xlink:href="#glyph-0-2" x="132.6164" y="20.003595"/>
<use xlink:href="#glyph-0-2" x="136.9508" y="20.003595"/>
<use xlink:href="#glyph-0-2" x="141.2852" y="20.003595"/>
<use xlink:href="#glyph-0-2" x="145.6196" y="20.003595"/>
<use xlink:href="#glyph-0-2" x="149.954" y="20.003595"/>
<use xlink:href="#glyph-0-2" x="154.2884" y="20.003595"/>
<use xlink:href="#glyph-0-2" x="158.6228" y="20.003595"/>
<use xlink:href="#glyph-0-2" x="162.9572" y="20.003595"/>
<use xlink:href="#glyph-0-2" x="167.2916" y="20.003595"/>
<use xlink:href="#glyph-0-2" x="171.626" y="20.003595"/>
<use xlink:href="#glyph-0-2" x="175.9604" y="20.003595"/>
<use xlink:href="#glyph-0-2" x="180.2948" y="20.003595"/>
<use xlink:href="#glyph-0-2" x="184.6292" y="20.003595"/>
<use xlink:href="#glyph-0-2" x="188.9636" y="20.003595"/>
<use xlink:href="#glyph-0-23" x="193.298" y="20.003595"/>
</g>
<g fill="rgb(50.195312%, 50.195312%, 50.195312%)" fill-opacity="1">
<use xlink:href="#glyph-0-4" x="-1.75" y="28.383967"/>
</g>
<g fill="rgb(0%, 0%, 0%)" fill-opacity="1">
<use xlink:href="#glyph-1-1" x="32.925781" y="28.383967"/>
<use xlink:href="#glyph-1-2" x="37.260181" y="28.383967"/>
<use xlink:href="#glyph-1-3" x="41.594581" y="28.383967"/>
<use xlink:href="#glyph-1-4" x="45.928981" y="28.383967"/>
<use xlink:href="#glyph-1-5" x="50.263381" y="28.383967"/>
<use xlink:href="#glyph-1-6" x="54.597781" y="28.383967"/>
</g>
<g fill="rgb(50.195312%, 50.195312%, 50.195312%)" fill-opacity="1">
<use xlink:href="#glyph-0-24" x="63.26709" y="28.383967"/>
</g>
<g fill="rgb(0%, 0%, 0%)" fill-opacity="1">
<use xlink:href="#glyph-1-7" x="97.942871" y="28.383967"/>
<use xlink:href="#glyph-1-8" x="102.277271" y="28.383967"/>
<use xlink:href="#glyph-1-9" x="106.611671" y="28.383967"/>
<use xlink:href="#glyph-1-10" x="110.946071" y="28.383967"/>
<use xlink:href="#glyph-1-5" x="115.280471" y="28.383967"/>
<use xlink:href="#glyph-1-4" x="119.614871" y="28.383967"/>
</g>
<g fill="rgb(50.195312%, 50.195312%, 50.195312%)" fill-opacity="1">
<use xlink:href="#glyph-0-24" x="128.28418" y="28.383967"/>
</g>
<g fill="rgb(0%, 0%, 0%)" fill-opacity="1">
<use xlink:href="#glyph-1-11" x="136.953125" y="28.383967"/>
<use xlink:href="#glyph-1-2" x="141.287525" y="28.383967"/>
<use xlink:href="#glyph-1-12" x="145.621925" y="28.383967"/>
<use xlink:href="#glyph-1-1" x="149.956325" y="28.383967"/>
<use xlink:href="#glyph-1-13" x="154.290725" y="28.383967"/>
<use xlink:href="#glyph-1-14" x="158.625125" y="28.383967"/>
</g>
<g fill="rgb(50.195312%, 50.195312%, 50.195312%)" fill-opacity="1">
<use xlink:href="#glyph-0-4" x="193.301269" y="28.383967"/>
</g>
<g fill="rgb(50.195312%, 50.195312%, 50.195312%)" fill-opacity="1">
<use xlink:href="#glyph-0-21" x="-1.75" y="36.764338"/>
<use xlink:href="#glyph-0-25" x="2.5844" y="36.764338"/>
<use xlink:href="#glyph-0-25" x="6.9188" y="36.764338"/>
<use xlink:href="#glyph-0-25" x="11.2532" y="36.764338"/>
<use xlink:href="#glyph-0-25" x="15.5876" y="36.764338"/>
<use xlink:href="#glyph-0-25" x="19.922" y="36.764338"/>
<use xlink:href="#glyph-0-25" x="24.2564" y="36.764338"/>
<use xlink:href="#glyph-0-25" x="28.5908" y="36.764338"/>
<use xlink:href="#glyph-0-25" x="32.9252" y="36.764338"/>
<use xlink:href="#glyph-0-25" x="37.2596" y="36.764338"/>
<use xlink:href="#glyph-0-25" x="41.594" y="36.764338"/>
<use xlink:href="#glyph-0-25" x="45.9284" y="36.764338"/>
<use xlink:href="#glyph-0-25" x="50.2628" y="36.764338"/>
<use xlink:href="#glyph-0-25" x="54.5972" y="36.764338"/>
<use xlink:href="#glyph-0-25" x="58.9316" y="36.764338"/>
<use xlink:href="#glyph-0-26" x="63.266" y="36.764338"/>
<use xlink:href="#glyph-0-25" x="67.6004" y="36.764338"/>
<use xlink:href="#glyph-0-25" x="71.9348" y="36.764338"/>
<use xlink:href="#glyph-0-25" x="76.2692" y="36.764338"/>
<use xlink:href="#glyph-0-25" x="80.6036" y="36.764338"/>
<use xlink:href="#glyph-0-25" x="84.938" y="36.764338"/>
<use xlink:href="#glyph-0-25" x="89.2724" y="36.764338"/>
<use xlink:href="#glyph-0-25" x="93.6068" y="36.764338"/>
<use xlink:href="#glyph-0-25" x="97.9412" y="36.764338"/>
<use xlink:href="#glyph-0-25" x="102.2756" y="36.764338"/>
<use xlink:href="#glyph-0-25" x="106.61" y="36.764338"/>
<use xlink:href="#glyph-0-25" x="110.9444" y="36.764338"/>
<use xlink:href="#glyph-0-25" x="115.2788" y="36.764338"/>
<use xlink:href="#glyph-0-25" x="119.6132" y="36.764338"/>
<use xlink:href="#glyph-0-25" x="123.9476" y="36.764338"/>
<use xlink:href="#glyph-0-26" x="128.282" y="36.764338"/>
<use xlink:href="#glyph-0-25" x="132.6164" y="36.764338"/>
<use xlink:href="#glyph-0-25" x="136.9508" y="36.764338"/>
<use xlink:href="#glyph-0-25" x="141.2852" y="36.764338"/>
<use xlink:href="#glyph-0-25" x="145.6196" y="36.764338"/>
<use xlink:href="#glyph-0-25" x="149.954" y="36.764338"/>
<use xlink:href="#glyph-0-25" x="154.2884" y="36.764338"/>
<use xlink:href="#glyph-0-25" x="158.6228" y="36.764338"/>
<use xlink:href="#glyph-0-25" x="162.9572" y="36.764338"/>
<use xlink:href="#glyph-0-25" x="167.2916" y="36.764338"/>
<use xlink:href="#glyph-0-25" x="171.626" y="36.764338"/>
<use xlink:href="#glyph-0-25" x="175.9604" y="36.764338"/>
<use xlink:href="#glyph-0-25" x="180.2948" y="36.764338"/>
<use xlink:href="#glyph-0-25" x="184.6292" y="36.764338"/>
<use xlink:href="#glyph-0-25" x="188.9636" y="36.764338"/>
<use xlink:href="#glyph-0-23" x="193.298" y="36.764338"/>
</g>
<g fill="rgb(50.195312%, 50.195312%, 50.195312%)" fill-opacity="1">
<use xlink:href="#glyph-0-4" x="-1.75" y="45.144709"/>
</g>
<g fill="rgb(50.195312%, 50.195312%, 50.195312%)" fill-opacity="1">
<use xlink:href="#glyph-2-1" x="54.598144" y="45.144709"/>
</g>
<g fill="rgb(50.195312%, 50.195312%, 50.195312%)" fill-opacity="1">
<use xlink:href="#glyph-0-24" x="63.26709" y="45.144709"/>
</g>
<g fill="rgb(50.195312%, 50.195312%, 50.195312%)" fill-opacity="1">
<use xlink:href="#glyph-2-2" x="119.615234" y="45.144709"/>
</g>
<g fill="rgb(50.195312%, 50.195312%, 50.195312%)" fill-opacity="1">
<use xlink:href="#glyph-0-24" x="128.28418" y="45.144709"/>
</g>
<g fill="rgb(50.195312%, 50.195312%, 50.195312%)" fill-opacity="1">
<use xlink:href="#glyph-2-3" x="136.953125" y="45.144709"/>
<use xlink:href="#glyph-2-4" x="141.287525" y="45.144709"/>
<use xlink:href="#glyph-2-5" x="145.621925" y="45.144709"/>
<use xlink:href="#glyph-2-6" x="149.956325" y="45.144709"/>
<use xlink:href="#glyph-2-7" x="154.290725" y="45.144709"/>
</g>
<g fill="rgb(50.195312%, 50.195312%, 50.195312%)" fill-opacity="1">
<use xlink:href="#glyph-0-4" x="193.301269" y="45.144709"/>
</g>
<g fill="rgb(50.195312%, 50.195312%, 50.195312%)" fill-opacity="1">
<use xlink:href="#glyph-0-4" x="-1.75" y="53.52508"/>
</g>
<g fill="rgb(41.175842%, 41.175842%, 41.175842%)" fill-opacity="1">
<use xlink:href="#glyph-1-15" x="54.598144" y="53.52508"/>
</g>
<g fill="rgb(50.195312%, 50.195312%, 50.195312%)" fill-opacity="1">
<use xlink:href="#glyph-0-24" x="63.26709" y="53.52508"/>
</g>
<g fill="rgb(41.175842%, 41.175842%, 41.175842%)" fill-opacity="1">
<use xlink:href="#glyph-1-16" x="119.615234" y="53.52508"/>
</g>
<g fill="rgb(50.195312%, 50.195312%, 50.195312%)" fill-opacity="1">
<use xlink:href="#glyph-0-24" x="128.28418" y="53.52508"/>
</g>
<g fill="rgb(41.175842%, 41.175842%, 41.175842%)" fill-opacity="1">
<use xlink:href="#glyph-1-2" x="136.953125" y="53.52508"/>
<use xlink:href="#glyph-1-12" x="141.287525" y="53.52508"/>
<use xlink:href="#glyph-1-9" x="145.621925" y="53.52508"/>
<use xlink:href="#glyph-1-4" x="149.956325" y="53.52508"/>
</g>
<g fill="rgb(50.195312%, 50.195312%, 50.195312%)" fill-opacity="1">
<use xlink:href="#glyph-0-4" x="193.301269" y="53.52508"/>
</g>
<g fill="rgb(50.195312%, 50.195312%, 50.195312%)" fill-opacity="1">
<use xlink:href="#glyph-0-4" x="-1.75" y="61.905451"/>
</g>
<g fill="rgb(50.195312%, 50.195312%, 50.195312%)" fill-opacity="1">
<use xlink:href="#glyph-2-8" x="54.598144" y="61.905451"/>
</g>
<g fill="rgb(50.195312%, 50.195312%, 50.195312%)" fill-opacity="1">
<use xlink:href="#glyph-0-24" x="63.26709" y="61.905451"/>
</g>
<g fill="rgb(50.195312%, 50.195312%, 50.195312%)" fill-opacity="1">
<use xlink:href="#glyph-2-9" x="119.615234" y="61.905451"/>
</g>
<g fill="rgb(50.195312%, 50.195312%, 50.195312%)" fill-opacity="1">
<use xlink:href="#glyph-0-24" x="128.28418" y="61.905451"/>
</g>
<g fill="rgb(50.195312%, 50.195312%, 50.195312%)" fill-opacity="1">
<use xlink:href="#glyph-2-3" x="136.953125" y="61.905451"/>
<use xlink:href="#glyph-2-4" x="141.287525" y="61.905451"/>
<use xlink:href="#glyph-2-5" x="145.621925" y="61.905451"/>
<use xlink:href="#glyph-2-6" x="149.956325" y="61.905451"/>
<use xlink:href="#glyph-2-7" x="154.290725" y="61.905451"/>
</g>
<g fill="rgb(50.195312%, 50.195312%, 50.195312%)" fill-opacity="1">
<use xlink:href="#glyph-0-4" x="193.301269" y="61.905451"/>
</g>
<g fill="rgb(50.195312%, 50.195312%, 50.195312%)" fill-opacity="1">
<use xlink:href="#glyph-0-4" x="-1.75" y="70.285822"/>
</g>
<g fill="rgb(41.175842%, 41.175842%, 41.175842%)" fill-opacity="1">
<use xlink:href="#glyph-1-16" x="54.598144" y="70.285822"/>
</g>
<g fill="rgb(50.195312%, 50.195312%, 50.195312%)" fill-opacity="1">
<use xlink:href="#glyph-0-24" x="63.26709" y="70.285822"/>
</g>
<g fill="rgb(41.175842%, 41.175842%, 41.175842%)" fill-opacity="1">
<use xlink:href="#glyph-1-17" x="119.615234" y="70.285822"/>
</g>
<g fill="rgb(50.195312%, 50.195312%, 50.195312%)" fill-opacity="1">
<use xlink:href="#glyph-0-24" x="128.28418" y="70.285822"/>
</g>
<g fill="rgb(41.175842%, 41.175842%, 41.175842%)" fill-opacity="1">
<use xlink:href="#glyph-1-2" x="136.953125" y="70.285822"/>
<use xlink:href="#glyph-1-12" x="141.287525" y="70.285822"/>
<use xlink:href="#glyph-1-9" x="145.621925" y="70.285822"/>
<use xlink:href="#glyph-1-4" x="149.956325" y="70.285822"/>
</g>
<g fill="rgb(50.195312%, 50.195312%, 50.195312%)" fill-opacity="1">
<use xlink:href="#glyph-0-4" x="193.301269" y="70.285822"/>
</g>
<g fill="rgb(50.195312%, 50.195312%, 50.195312%)" fill-opacity="1">
<use xlink:href="#glyph-0-4" x="-1.75" y="78.666193"/>
</g>
<g fill="rgb(50.195312%, 50.195312%, 50.195312%)" fill-opacity="1">
<use xlink:href="#glyph-2-10" x="54.598144" y="78.666193"/>
</g>
<g fill="rgb(50.195312%, 50.195312%, 50.195312%)" fill-opacity="1">
<use xlink:href="#glyph-0-24" x="63.26709" y="78.666193"/>
</g>
<g fill="rgb(50.195312%, 50.195312%, 50.195312%)" fill-opacity="1">
<use xlink:href="#glyph-2-1" x="115.280762" y="78.666193"/>
<use xlink:href="#glyph-2-11" x="119.615162" y="78.666193"/>
</g>
<g fill="rgb(50.195312%, 50.195312%, 50.195312%)" fill-opacity="1">
<use xlink:href="#glyph-0-24" x="128.28418" y="78.666193"/>
</g>
<g fill="rgb(50.195312%, 50.195312%, 50.195312%)" fill-opacity="1">
<use xlink:href="#glyph-2-3" x="136.953125" y="78.666193"/>
<use xlink:href="#glyph-2-4" x="141.287525" y="78.666193"/>
<use xlink:href="#glyph-2-5" x="145.621925" y="78.666193"/>
<use xlink:href="#glyph-2-6" x="149.956325" y="78.666193"/>
<use xlink:href="#glyph-2-7" x="154.290725" y="78.666193"/>
</g>
<g fill="rgb(50.195312%, 50.195312%, 50.195312%)" fill-opacity="1">
<use xlink:href="#glyph-0-4" x="193.301269" y="78.666193"/>
</g>
<g fill="rgb(50.195312%, 50.195312%, 50.195312%)" fill-opacity="1">
<use xlink:href="#glyph-0-21" x="-1.75" y="87.046564"/>
<use xlink:href="#glyph-0-2" x="2.5844" y="87.046564"/>
<use xlink:href="#glyph-0-2" x="6.9188" y="87.046564"/>
<use xlink:href="#glyph-0-2" x="11.2532" y="87.046564"/>
<use xlink:href="#glyph-0-2" x="15.5876" y="87.046564"/>
<use xlink:href="#glyph-0-2" x="19.922" y="87.046564"/>
<use xlink:href="#glyph-0-2" x="24.2564" y="87.046564"/>
<use xlink:href="#glyph-0-2" x="28.5908" y="87.046564"/>
<use xlink:href="#glyph-0-2" x="32.9252" y="87.046564"/>
<use xlink:href="#glyph-0-2" x="37.2596" y="87.046564"/>
<use xlink:href="#glyph-0-2" x="41.594" y="87.046564"/>
<use xlink:href="#glyph-0-2" x="45.9284" y="87.046564"/>
<use xlink:href="#glyph-0-2" x="50.2628" y="87.046564"/>
<use xlink:href="#glyph-0-2" x="54.5972" y="87.046564"/>
<use xlink:href="#glyph-0-2" x="58.9316" y="87.046564"/>
<use xlink:href="#glyph-0-27" x="63.266" y="87.046564"/>
<use xlink:href="#glyph-0-2" x="67.6004" y="87.046564"/>
<use xlink:href="#glyph-0-2" x="71.9348" y="87.046564"/>
<use xlink:href="#glyph-0-2" x="76.2692" y="87.046564"/>
<use xlink:href="#glyph-0-2" x="80.6036" y="87.046564"/>
<use xlink:href="#glyph-0-2" x="84.938" y="87.046564"/>
<use xlink:href="#glyph-0-2" x="89.2724" y="87.046564"/>
<use xlink:href="#glyph-0-2" x="93.6068" y="87.046564"/>
<use xlink:href="#glyph-0-2" x="97.9412" y="87.046564"/>
<use xlink:href="#glyph-0-2" x="102.2756" y="87.046564"/>
<use xlink:href="#glyph-0-2" x="106.61" y="87.046564"/>
<use xlink:href="#glyph-0-2" x="110.9444" y="87.046564"/>
<use xlink:href="#glyph-0-2" x="115.2788" y="87.046564"/>
<use xlink:href="#glyph-0-2" x="119.6132" y="87.046564"/>
<use xlink:href="#glyph-0-2" x="123.9476" y="87.046564"/>
<use xlink:href="#glyph-0-27" x="128.282" y="87.046564"/>
<use xlink:href="#glyph-0-2" x="132.6164" y="87.046564"/>
<use xlink:href="#glyph-0-2" x="136.9508" y="87.046564"/>
<use xlink:href="#glyph-0-2" x="141.2852" y="87.046564"/>
<use xlink:href="#glyph-0-2" x="145.6196" y="87.046564"/>
<use xlink:href="#glyph-0-2" x="149.954" y="87.046564"/>
<use xlink:href="#glyph-0-2" x="154.2884" y="87.046564"/>
<use xlink:href="#glyph-0-2" x="158.6228" y="87.046564"/>
<use xlink:href="#glyph-0-2" x="162.9572" y="87.046564"/>
<use xlink:href="#glyph-0-2" x="167.2916" y="87.046564"/>
<use xlink:href="#glyph-0-2" x="171.626" y="87.046564"/>
<use xlink:href="#glyph-0-2" x="175.9604" y="87.046564"/>
<use xlink:href="#glyph-0-2" x="180.2948" y="87.046564"/>
<use xlink:href="#glyph-0-2" x="184.6292" y="87.046564"/>
<use xlink:href="#glyph-0-2" x="188.9636" y="87.046564"/>
<use xlink:href="#glyph-0-23" x="193.298" y="87.046564"/>
</g>
<g fill="rgb(50.195312%, 50.195312%, 50.195312%)" fill-opacity="1">
<use xlink:href="#glyph-0-4" x="-1.75" y="95.426936"/>
</g>
<g fill="rgb(0%, 0%, 0%)" fill-opacity="1">
<use xlink:href="#glyph-0-5" x="2.584473" y="95.426936"/>
<use xlink:href="#glyph-0-5" x="6.918873" y="95.426936"/>
<use xlink:href="#glyph-0-5" x="11.253273" y="95.426936"/>
<use xlink:href="#glyph-0-5" x="15.587673" y="95.426936"/>
<use xlink:href="#glyph-0-5" x="19.922073" y="95.426936"/>
<use xlink:href="#glyph-0-5" x="24.256473" y="95.426936"/>
<use xlink:href="#glyph-0-5" x="28.590873" y="95.426936"/>
<use xlink:href="#glyph-0-5" x="32.925273" y="95.426936"/>
<use xlink:href="#glyph-0-5" x="37.259673" y="95.426936"/>
<use xlink:href="#glyph-0-5" x="41.594073" y="95.426936"/>
<use xlink:href="#glyph-0-5" x="45.928473" y="95.426936"/>
<use xlink:href="#glyph-0-5" x="50.262873" y="95.426936"/>
<use xlink:href="#glyph-0-5" x="54.597273" y="95.426936"/>
<use xlink:href="#glyph-0-5" x="58.931673" y="95.426936"/>
<use xlink:href="#glyph-0-5" x="63.266073" y="95.426936"/>
<use xlink:href="#glyph-0-5" x="67.600473" y="95.426936"/>
<use xlink:href="#glyph-0-5" x="71.934873" y="95.426936"/>
<use xlink:href="#glyph-0-28" x="76.269273" y="95.426936"/>
<use xlink:href="#glyph-0-13" x="80.603673" y="95.426936"/>
<use xlink:href="#glyph-0-14" x="84.938073" y="95.426936"/>
<use xlink:href="#glyph-0-5" x="89.272473" y="95.426936"/>
<use xlink:href="#glyph-0-29" x="93.606873" y="95.426936"/>
<use xlink:href="#glyph-0-20" x="97.941273" y="95.426936"/>
<use xlink:href="#glyph-0-5" x="102.275673" y="95.426936"/>
<use xlink:href="#glyph-0-14" x="106.610073" y="95.426936"/>
<use xlink:href="#glyph-0-10" x="110.944473" y="95.426936"/>
<use xlink:href="#glyph-0-18" x="115.278873" y="95.426936"/>
<use xlink:href="#glyph-0-10" x="119.613273" y="95.426936"/>
<use xlink:href="#glyph-0-5" x="123.947673" y="95.426936"/>
<use xlink:href="#glyph-0-5" x="128.282073" y="95.426936"/>
<use xlink:href="#glyph-0-5" x="132.616473" y="95.426936"/>
<use xlink:href="#glyph-0-5" x="136.950873" y="95.426936"/>
<use xlink:href="#glyph-0-5" x="141.285273" y="95.426936"/>
<use xlink:href="#glyph-0-5" x="145.619673" y="95.426936"/>
<use xlink:href="#glyph-0-5" x="149.954073" y="95.426936"/>
<use xlink:href="#glyph-0-5" x="154.288473" y="95.426936"/>
<use xlink:href="#glyph-0-5" x="158.622873" y="95.426936"/>
<use xlink:href="#glyph-0-5" x="162.957273" y="95.426936"/>
<use xlink:href="#glyph-0-5" x="167.291673" y="95.426936"/>
<use xlink:href="#glyph-0-5" x="171.626073" y="95.426936"/>
<use xlink:href="#glyph-0-5" x="175.960473" y="95.426936"/>
<use xlink:href="#glyph-0-5" x="180.294873" y="95.426936"/>
<use xlink:href="#glyph-0-5" x="184.629273" y="95.426936"/>
<use xlink:href="#glyph-0-5" x="188.963673" y="95.426936"/>
</g>
<g fill="rgb(50.195312%, 50.195312%, 50.195312%)" fill-opacity="1">
<use xlink:href="#glyph-0-4" x="193.301269" y="95.426936"/>
</g>
<g fill="rgb(50.195312%, 50.195312%, 50.195312%)" fill-opacity="1">
<use xlink:href="#glyph-0-30" x="-1.75" y="103.807307"/>
<use xlink:href="#glyph-0-2" x="2.5844" y="103.807307"/>
<use xlink:href="#glyph-0-2" x="6.9188" y="103.807307"/>
<use xlink:href="#glyph-0-2" x="11.2532" y="103.807307"/>
<use xlink:href="#glyph-0-2" x="15.5876" y="103.807307"/>
<use xlink:href="#glyph-0-2" x="19.922" y="103.807307"/>
<use xlink:href="#glyph-0-2" x="24.2564" y="103.807307"/>
<use xlink:href="#glyph-0-2" x="28.5908" y="103.807307"/>
<use xlink:href="#glyph-0-2" x="32.9252" y="103.807307"/>
<use xlink:href="#glyph-0-2" x="37.2596" y="103.807307"/>
<use xlink:href="#glyph-0-2" x="41.594" y="103.807307"/>
<use xlink:href="#glyph-0-2" x="45.9284" y="103.807307"/>
<use xlink:href="#glyph-0-2" x="50.2628" y="103.807307"/>
<use xlink:href="#glyph-0-2" x="54.5972" y="103.807307"/>
<use xlink:href="#glyph-0-2" x="58.9316" y="103.807307"/>
<use xlink:href="#glyph-0-2" x="63.266" y="103.807307"/>
<use xlink:href="#glyph-0-2" x="67.6004" y="103.807307"/>
<use xlink:href="#glyph-0-2" x="71.9348" y="103.807307"/>
<use xlink:href="#glyph-0-2" x="76.2692" y="103.807307"/>
<use xlink:href="#glyph-0-2" x="80.6036" y="103.807307"/>
<use xlink:href="#glyph-0-2" x="84.938" y="103.807307"/>
<use xlink:href="#glyph-0-2" x="89.2724" y="103.807307"/>
<use xlink:href="#glyph-0-2" x="93.6068" y="103.807307"/>
<use xlink:href="#glyph-0-2" x="97.9412" y="103.807307"/>
<use xlink:href="#glyph-0-2" x="102.2756" y="103.807307"/>
<use xlink:href="#glyph-0-2" x="106.61" y="103.807307"/>
<use xlink:href="#glyph-0-2" x="110.9444" y="103.807307"/>
<use xlink:href="#glyph-0-2" x="115.2788" y="103.807307"/>
<use xlink:href="#glyph-0-2" x="119.6132" y="103.807307"/>
<use xlink:href="#glyph-0-2" x="123.9476" y="103.807307"/>
<use xlink:href="#glyph-0-2" x="128.282" y="103.807307"/>
<use xlink:href="#glyph-0-2" x="132.6164" y="103.807307"/>
<use xlink:href="#glyph-0-2" x="136.9508" y="103.807307"/>
<use xlink:href="#glyph-0-2" x="141.2852" y="103.807307"/>
<use xlink:href="#glyph-0-2" x="145.6196" y="103.807307"/>
<use xlink:href="#glyph-0-2" x="149.954" y="103.807307"/>
<use xlink:href="#glyph-0-2" x="154.2884" y="103.807307"/>
<use xlink:href="#glyph-0-2" x="158.6228" y="103.807307"/>
<use xlink:href="#glyph-0-2" x="162.9572" y="103.807307"/>
<use xlink:href="#glyph-0-2" x="167.2916" y="103.807307"/>
<use xlink:href="#glyph-0-2" x="171.626" y="103.807307"/>
<use xlink:href="#glyph-0-2" x="175.9604" y="103.807307"/>
<use xlink:href="#glyph-0-2" x="180.2948" y="103.807307"/>
<use xlink:href="#glyph-0-2" x="184.6292" y="103.807307"/>
<use xlink:href="#glyph-0-2" x="188.9636" y="103.807307"/>
<use xlink:href="#glyph-0-31" x="193.298" y="103.807307"/>
</g>
</svg>
